%!PS-Adobe-3.0
%%Creator: graphviz version 2.38.0 (20140413.2041)
%%Title: G
%%Pages: (atend)
%%BoundingBox: (atend)
%%EndComments
save
%%BeginProlog
/DotDict 200 dict def
DotDict begin

/setupLatin1 {
mark
/EncodingVector 256 array def
 EncodingVector 0

ISOLatin1Encoding 0 255 getinterval putinterval
EncodingVector 45 /hyphen put

% Set up ISO Latin 1 character encoding
/starnetISO {
        dup dup findfont dup length dict begin
        { 1 index /FID ne { def }{ pop pop } ifelse
        } forall
        /Encoding EncodingVector def
        currentdict end definefont
} def
/Times-Roman starnetISO def
/Times-Italic starnetISO def
/Times-Bold starnetISO def
/Times-BoldItalic starnetISO def
/Helvetica starnetISO def
/Helvetica-Oblique starnetISO def
/Helvetica-Bold starnetISO def
/Helvetica-BoldOblique starnetISO def
/Courier starnetISO def
/Courier-Oblique starnetISO def
/Courier-Bold starnetISO def
/Courier-BoldOblique starnetISO def
cleartomark
} bind def

%%BeginResource: procset graphviz 0 0
/coord-font-family /Times-Roman def
/default-font-family /Times-Roman def
/coordfont coord-font-family findfont 8 scalefont def

/InvScaleFactor 1.0 def
/set_scale {
       dup 1 exch div /InvScaleFactor exch def
       scale
} bind def

% styles
/solid { [] 0 setdash } bind def
/dashed { [9 InvScaleFactor mul dup ] 0 setdash } bind def
/dotted { [1 InvScaleFactor mul 6 InvScaleFactor mul] 0 setdash } bind def
/invis {/fill {newpath} def /stroke {newpath} def /show {pop newpath} def} bind def
/bold { 2 setlinewidth } bind def
/filled { } bind def
/unfilled { } bind def
/rounded { } bind def
/diagonals { } bind def
/tapered { } bind def

% hooks for setting color 
/nodecolor { sethsbcolor } bind def
/edgecolor { sethsbcolor } bind def
/graphcolor { sethsbcolor } bind def
/nopcolor {pop pop pop} bind def

/beginpage {	% i j npages
	/npages exch def
	/j exch def
	/i exch def
	/str 10 string def
	npages 1 gt {
		gsave
			coordfont setfont
			0 0 moveto
			(\() show i str cvs show (,) show j str cvs show (\)) show
		grestore
	} if
} bind def

/set_font {
	findfont exch
	scalefont setfont
} def

% draw text fitted to its expected width
/alignedtext {			% width text
	/text exch def
	/width exch def
	gsave
		width 0 gt {
			[] 0 setdash
			text stringwidth pop width exch sub text length div 0 text ashow
		} if
	grestore
} def

/boxprim {				% xcorner ycorner xsize ysize
		4 2 roll
		moveto
		2 copy
		exch 0 rlineto
		0 exch rlineto
		pop neg 0 rlineto
		closepath
} bind def

/ellipse_path {
	/ry exch def
	/rx exch def
	/y exch def
	/x exch def
	matrix currentmatrix
	newpath
	x y translate
	rx ry scale
	0 0 1 0 360 arc
	setmatrix
} bind def

/endpage { showpage } bind def
/showpage { } def

/layercolorseq
	[	% layer color sequence - darkest to lightest
		[0 0 0]
		[.2 .8 .8]
		[.4 .8 .8]
		[.6 .8 .8]
		[.8 .8 .8]
	]
def

/layerlen layercolorseq length def

/setlayer {/maxlayer exch def /curlayer exch def
	layercolorseq curlayer 1 sub layerlen mod get
	aload pop sethsbcolor
	/nodecolor {nopcolor} def
	/edgecolor {nopcolor} def
	/graphcolor {nopcolor} def
} bind def

/onlayer { curlayer ne {invis} if } def

/onlayers {
	/myupper exch def
	/mylower exch def
	curlayer mylower lt
	curlayer myupper gt
	or
	{invis} if
} def

/curlayer 0 def

%%EndResource
%%EndProlog
%%BeginSetup
14 default-font-family set_font
1 setmiterlimit
% /arrowlength 10 def
% /arrowwidth 5 def

% make sure pdfmark is harmless for PS-interpreters other than Distiller
/pdfmark where {pop} {userdict /pdfmark /cleartomark load put} ifelse
% make '<<' and '>>' safe on PS Level 1 devices
/languagelevel where {pop languagelevel}{1} ifelse
2 lt {
    userdict (<<) cvn ([) cvn load put
    userdict (>>) cvn ([) cvn load put
} if

%%EndSetup
setupLatin1
%%Page: 1 1
%%PageBoundingBox: 36 36 986 961
%%PageOrientation: Portrait
0 0 1 beginpage
gsave
36 36 950 925 boxprim clip newpath
1 1 set_scale 0 rotate 40 40 translate
% N1
gsave
1 setlinewidth
0 0 0 nodecolor
549.9 610.7 79.09 18 ellipse_path stroke
0 0 0 nodecolor
14 /Times-Roman set_font
496.9 607 moveto 106 (function_declarator) alignedtext
grestore
% N2
gsave
1 setlinewidth
0 0 0 nodecolor
447.9 529.83 28.7 18 ellipse_path stroke
0 0 0 nodecolor
14 /Times-Roman set_font
433.9 526.13 moveto 28 (main) alignedtext
grestore
% N1->N2
gsave
1 setlinewidth
0 0 0 edgecolor
newpath 528.26 592.97 moveto
512.33 580.65 490.59 563.84 473.74 550.81 curveto
stroke
0 0 0 edgecolor
newpath 475.48 547.74 moveto
465.43 544.39 lineto
471.2 553.27 lineto
closepath fill
1 setlinewidth
solid
0 0 0 edgecolor
newpath 475.48 547.74 moveto
465.43 544.39 lineto
471.2 553.27 lineto
closepath stroke
grestore
% N3
gsave
1 setlinewidth
0 0 0 nodecolor
554.9 529.83 60.21 26.74 ellipse_path stroke
0 0 0 nodecolor
14 /Times-Roman set_font
547.4 533.63 moveto 15 (int) alignedtext
0 0 0 nodecolor
14 /Times-Roman set_font
520.4 518.63 moveto 69 (\(return type\)) alignedtext
grestore
% N1->N3
gsave
1 setlinewidth
0 0 0 edgecolor
newpath 550.98 592.59 moveto
551.45 585.1 552.03 576.01 552.59 567.13 curveto
stroke
0 0 0 edgecolor
newpath 556.1 567.11 moveto
553.24 556.91 lineto
549.12 566.67 lineto
closepath fill
1 setlinewidth
solid
0 0 0 edgecolor
newpath 556.1 567.11 moveto
553.24 556.91 lineto
549.12 566.67 lineto
closepath stroke
grestore
% N4
gsave
1 setlinewidth
0 0 0 nodecolor
55.9 90 55.79 18 ellipse_path stroke
0 0 0 nodecolor
14 /Times-Roman set_font
20.9 86.3 moveto 70 (decl_body_1) alignedtext
grestore
% int
gsave
1 setlinewidth
0 0 0 nodecolor
55.9 18 27 18 ellipse_path stroke
0 0 0 nodecolor
14 /Times-Roman set_font
48.4 14.3 moveto 15 (int) alignedtext
grestore
% N4->int
gsave
1 setlinewidth
0 0 0 edgecolor
newpath 55.9 71.7 moveto
55.9 63.98 55.9 54.71 55.9 46.11 curveto
stroke
0 0 0 edgecolor
newpath 59.4 46.1 moveto
55.9 36.1 lineto
52.4 46.1 lineto
closepath fill
1 setlinewidth
solid
0 0 0 edgecolor
newpath 59.4 46.1 moveto
55.9 36.1 lineto
52.4 46.1 lineto
closepath stroke
grestore
% N5
gsave
1 setlinewidth
0 0 0 nodecolor
185.9 90 55.79 18 ellipse_path stroke
0 0 0 nodecolor
14 /Times-Roman set_font
150.9 86.3 moveto 70 (decl_body_1) alignedtext
grestore
% char
gsave
1 setlinewidth
0 0 0 nodecolor
185.9 18 27 18 ellipse_path stroke
0 0 0 nodecolor
14 /Times-Roman set_font
173.9 14.3 moveto 24 (char) alignedtext
grestore
% N5->char
gsave
1 setlinewidth
0 0 0 edgecolor
newpath 185.9 71.7 moveto
185.9 63.98 185.9 54.71 185.9 46.11 curveto
stroke
0 0 0 edgecolor
newpath 189.4 46.1 moveto
185.9 36.1 lineto
182.4 46.1 lineto
closepath fill
1 setlinewidth
solid
0 0 0 edgecolor
newpath 189.4 46.1 moveto
185.9 36.1 lineto
182.4 46.1 lineto
closepath stroke
grestore
% N6
gsave
1 setlinewidth
0 0 0 nodecolor
165.9 170.87 65.79 18 ellipse_path stroke
0 0 0 nodecolor
14 /Times-Roman set_font
123.4 167.17 moveto 85 (block_item_list) alignedtext
grestore
% N6->N4
gsave
1 setlinewidth
0 0 0 edgecolor
newpath 143.63 153.91 moveto
127.13 142.07 104.43 125.8 86.26 112.77 curveto
stroke
0 0 0 edgecolor
newpath 87.91 109.65 moveto
77.75 106.67 lineto
83.83 115.34 lineto
closepath fill
1 setlinewidth
solid
0 0 0 edgecolor
newpath 87.91 109.65 moveto
77.75 106.67 lineto
83.83 115.34 lineto
closepath stroke
grestore
% N6->N5
gsave
1 setlinewidth
0 0 0 edgecolor
newpath 170.23 152.76 moveto
172.8 142.63 176.11 129.57 179.03 118.07 curveto
stroke
0 0 0 edgecolor
newpath 182.5 118.63 moveto
181.56 108.08 lineto
175.71 116.91 lineto
closepath fill
1 setlinewidth
solid
0 0 0 edgecolor
newpath 182.5 118.63 moveto
181.56 108.08 lineto
175.71 116.91 lineto
closepath stroke
grestore
% N7
gsave
1 setlinewidth
0 0 0 nodecolor
305.9 170.87 55.79 18 ellipse_path stroke
0 0 0 nodecolor
14 /Times-Roman set_font
270.9 167.17 moveto 70 (decl_body_1) alignedtext
grestore
% float
gsave
1 setlinewidth
0 0 0 nodecolor
305.9 90 27 18 ellipse_path stroke
0 0 0 nodecolor
14 /Times-Roman set_font
293.4 86.3 moveto 25 (float) alignedtext
grestore
% N7->float
gsave
1 setlinewidth
0 0 0 edgecolor
newpath 305.9 152.76 moveto
305.9 142.73 305.9 129.84 305.9 118.42 curveto
stroke
0 0 0 edgecolor
newpath 309.4 118.08 moveto
305.9 108.08 lineto
302.4 118.08 lineto
closepath fill
1 setlinewidth
solid
0 0 0 edgecolor
newpath 309.4 118.08 moveto
305.9 108.08 lineto
302.4 118.08 lineto
closepath stroke
grestore
% N8
gsave
1 setlinewidth
0 0 0 nodecolor
296.9 260.61 65.79 18 ellipse_path stroke
0 0 0 nodecolor
14 /Times-Roman set_font
254.4 256.91 moveto 85 (block_item_list) alignedtext
grestore
% N8->N6
gsave
1 setlinewidth
0 0 0 edgecolor
newpath 273.17 243.72 moveto
252.25 229.71 221.57 209.16 198.37 193.62 curveto
stroke
0 0 0 edgecolor
newpath 200.14 190.59 moveto
189.88 187.94 lineto
196.25 196.41 lineto
closepath fill
1 setlinewidth
solid
0 0 0 edgecolor
newpath 200.14 190.59 moveto
189.88 187.94 lineto
196.25 196.41 lineto
closepath stroke
grestore
% N8->N7
gsave
1 setlinewidth
0 0 0 edgecolor
newpath 298.67 242.28 moveto
299.94 229.94 301.66 213.12 303.11 199.01 curveto
stroke
0 0 0 edgecolor
newpath 306.61 199.18 moveto
304.15 188.87 lineto
299.65 198.46 lineto
closepath fill
1 setlinewidth
solid
0 0 0 edgecolor
newpath 306.61 199.18 moveto
304.15 188.87 lineto
299.65 198.46 lineto
closepath stroke
grestore
% N9
gsave
1 setlinewidth
0 0 0 nodecolor
423.9 170.87 35.21 26.74 ellipse_path stroke
0 0 0 nodecolor
14 /Times-Roman set_font
421.4 174.67 moveto 5 (f) alignedtext
0 0 0 nodecolor
14 /Times-Roman set_font
406.9 159.67 moveto 34 (\(float\)) alignedtext
grestore
% N10
gsave
1 setlinewidth
0 0 0 nodecolor
505.9 170.87 28.07 26.74 ellipse_path stroke
0 0 0 nodecolor
14 /Times-Roman set_font
503.9 174.67 moveto 4 (i) alignedtext
0 0 0 nodecolor
14 /Times-Roman set_font
493.9 159.67 moveto 24 (\(int\)) alignedtext
grestore
% N11
gsave
1 setlinewidth
0 0 0 nodecolor
441.9 260.61 61.99 18 ellipse_path stroke
0 0 0 nodecolor
14 /Times-Roman set_font
402.4 256.91 moveto 79 (= \(int to float\)) alignedtext
grestore
% N11->N9
gsave
1 setlinewidth
0 0 0 edgecolor
newpath 438.34 242.28 moveto
436.29 232.29 433.64 219.36 431.17 207.31 curveto
stroke
0 0 0 edgecolor
newpath 434.59 206.58 moveto
429.15 197.48 lineto
427.73 207.98 lineto
closepath fill
1 setlinewidth
solid
0 0 0 edgecolor
newpath 434.59 206.58 moveto
429.15 197.48 lineto
427.73 207.98 lineto
closepath stroke
grestore
% N11->N10
gsave
1 setlinewidth
0 0 0 edgecolor
newpath 454.23 242.69 moveto
462.72 231.06 474.21 215.31 484.2 201.61 curveto
stroke
0 0 0 edgecolor
newpath 487.12 203.55 moveto
490.19 193.4 lineto
481.47 199.42 lineto
closepath fill
1 setlinewidth
solid
0 0 0 edgecolor
newpath 487.12 203.55 moveto
490.19 193.4 lineto
481.47 199.42 lineto
closepath stroke
grestore
% N12
gsave
1 setlinewidth
0 0 0 nodecolor
431.9 350.35 65.79 18 ellipse_path stroke
0 0 0 nodecolor
14 /Times-Roman set_font
389.4 346.65 moveto 85 (block_item_list) alignedtext
grestore
% N12->N8
gsave
1 setlinewidth
0 0 0 edgecolor
newpath 407.45 333.46 moveto
385.66 319.3 353.59 298.46 329.6 282.87 curveto
stroke
0 0 0 edgecolor
newpath 331.45 279.9 moveto
321.16 277.38 lineto
327.64 285.77 lineto
closepath fill
1 setlinewidth
solid
0 0 0 edgecolor
newpath 331.45 279.9 moveto
321.16 277.38 lineto
327.64 285.77 lineto
closepath stroke
grestore
% N12->N11
gsave
1 setlinewidth
0 0 0 edgecolor
newpath 433.87 332.02 moveto
435.28 319.68 437.19 302.86 438.8 288.75 curveto
stroke
0 0 0 edgecolor
newpath 442.3 288.94 moveto
439.96 278.61 lineto
435.35 288.15 lineto
closepath fill
1 setlinewidth
solid
0 0 0 edgecolor
newpath 442.3 288.94 moveto
439.96 278.61 lineto
435.35 288.15 lineto
closepath stroke
grestore
% N13
gsave
1 setlinewidth
0 0 0 nodecolor
558.9 260.61 28.07 26.74 ellipse_path stroke
0 0 0 nodecolor
14 /Times-Roman set_font
556.9 264.41 moveto 4 (i) alignedtext
0 0 0 nodecolor
14 /Times-Roman set_font
546.9 249.41 moveto 24 (\(int\)) alignedtext
grestore
% N14
gsave
1 setlinewidth
0 0 0 nodecolor
640.9 260.61 35.21 26.74 ellipse_path stroke
0 0 0 nodecolor
14 /Times-Roman set_font
638.4 264.41 moveto 5 (f) alignedtext
0 0 0 nodecolor
14 /Times-Roman set_font
623.9 249.41 moveto 34 (\(float\)) alignedtext
grestore
% N15
gsave
1 setlinewidth
0 0 0 nodecolor
576.9 350.35 61.99 18 ellipse_path stroke
0 0 0 nodecolor
14 /Times-Roman set_font
537.4 346.65 moveto 79 (= \(float to int\)) alignedtext
grestore
% N15->N13
gsave
1 setlinewidth
0 0 0 edgecolor
newpath 573.34 332.02 moveto
571.29 322.03 568.64 309.1 566.17 297.05 curveto
stroke
0 0 0 edgecolor
newpath 569.59 296.32 moveto
564.15 287.22 lineto
562.73 297.72 lineto
closepath fill
1 setlinewidth
solid
0 0 0 edgecolor
newpath 569.59 296.32 moveto
564.15 287.22 lineto
562.73 297.72 lineto
closepath stroke
grestore
% N15->N14
gsave
1 setlinewidth
0 0 0 edgecolor
newpath 589.23 332.43 moveto
597.4 321.24 608.35 306.23 618.07 292.9 curveto
stroke
0 0 0 edgecolor
newpath 621.17 294.59 moveto
624.24 284.45 lineto
615.52 290.46 lineto
closepath fill
1 setlinewidth
solid
0 0 0 edgecolor
newpath 621.17 294.59 moveto
624.24 284.45 lineto
615.52 290.46 lineto
closepath stroke
grestore
% N16
gsave
1 setlinewidth
0 0 0 nodecolor
566.9 440.09 65.79 18 ellipse_path stroke
0 0 0 nodecolor
14 /Times-Roman set_font
524.4 436.39 moveto 85 (block_item_list) alignedtext
grestore
% N16->N12
gsave
1 setlinewidth
0 0 0 edgecolor
newpath 542.45 423.2 moveto
520.66 409.04 488.59 388.2 464.6 372.61 curveto
stroke
0 0 0 edgecolor
newpath 466.45 369.64 moveto
456.16 367.12 lineto
462.64 375.51 lineto
closepath fill
1 setlinewidth
solid
0 0 0 edgecolor
newpath 466.45 369.64 moveto
456.16 367.12 lineto
462.64 375.51 lineto
closepath stroke
grestore
% N16->N15
gsave
1 setlinewidth
0 0 0 edgecolor
newpath 568.87 421.76 moveto
570.28 409.42 572.19 392.6 573.8 378.49 curveto
stroke
0 0 0 edgecolor
newpath 577.3 378.68 moveto
574.96 368.35 lineto
570.35 377.89 lineto
closepath fill
1 setlinewidth
solid
0 0 0 edgecolor
newpath 577.3 378.68 moveto
574.96 368.35 lineto
570.35 377.89 lineto
closepath stroke
grestore
% N17
gsave
1 setlinewidth
0 0 0 nodecolor
693.9 350.35 28.07 26.74 ellipse_path stroke
0 0 0 nodecolor
14 /Times-Roman set_font
691.9 354.15 moveto 4 (i) alignedtext
0 0 0 nodecolor
14 /Times-Roman set_font
681.9 339.15 moveto 24 (\(int\)) alignedtext
grestore
% N18
gsave
1 setlinewidth
0 0 0 nodecolor
751.9 260.61 28.07 26.74 ellipse_path stroke
0 0 0 nodecolor
14 /Times-Roman set_font
749.9 264.41 moveto 4 (i) alignedtext
0 0 0 nodecolor
14 /Times-Roman set_font
739.9 249.41 moveto 24 (\(int\)) alignedtext
grestore
% N19
gsave
1 setlinewidth
0 0 0 nodecolor
833.9 260.61 35.21 26.74 ellipse_path stroke
0 0 0 nodecolor
14 /Times-Roman set_font
831.4 264.41 moveto 5 (f) alignedtext
0 0 0 nodecolor
14 /Times-Roman set_font
816.9 249.41 moveto 34 (\(float\)) alignedtext
grestore
% N20
gsave
1 setlinewidth
0 0 0 nodecolor
780.9 350.35 40.89 18 ellipse_path stroke
0 0 0 nodecolor
14 /Times-Roman set_font
757.4 346.65 moveto 47 (+f\(float\)) alignedtext
grestore
% N20->N18
gsave
1 setlinewidth
0 0 0 edgecolor
newpath 775.3 332.43 moveto
771.9 322.14 767.43 308.61 763.31 296.14 curveto
stroke
0 0 0 edgecolor
newpath 766.56 294.84 moveto
760.1 286.45 lineto
759.92 297.04 lineto
closepath fill
1 setlinewidth
solid
0 0 0 edgecolor
newpath 766.56 294.84 moveto
760.1 286.45 lineto
759.92 297.04 lineto
closepath stroke
grestore
% N20->N19
gsave
1 setlinewidth
0 0 0 edgecolor
newpath 790.86 332.85 moveto
797.44 321.96 806.28 307.32 814.24 294.15 curveto
stroke
0 0 0 edgecolor
newpath 817.39 295.7 moveto
819.57 285.33 lineto
811.4 292.08 lineto
closepath fill
1 setlinewidth
solid
0 0 0 edgecolor
newpath 817.39 295.7 moveto
819.57 285.33 lineto
811.4 292.08 lineto
closepath stroke
grestore
% N21
gsave
1 setlinewidth
0 0 0 nodecolor
711.9 440.09 61.99 18 ellipse_path stroke
0 0 0 nodecolor
14 /Times-Roman set_font
672.4 436.39 moveto 79 (= \(float to int\)) alignedtext
grestore
% N21->N17
gsave
1 setlinewidth
0 0 0 edgecolor
newpath 708.34 421.76 moveto
706.29 411.77 703.64 398.84 701.17 386.79 curveto
stroke
0 0 0 edgecolor
newpath 704.59 386.06 moveto
699.15 376.96 lineto
697.73 387.46 lineto
closepath fill
1 setlinewidth
solid
0 0 0 edgecolor
newpath 704.59 386.06 moveto
699.15 376.96 lineto
697.73 387.46 lineto
closepath stroke
grestore
% N21->N20
gsave
1 setlinewidth
0 0 0 edgecolor
newpath 725.2 422.17 moveto
735.54 409.02 750.04 390.59 761.65 375.82 curveto
stroke
0 0 0 edgecolor
newpath 764.67 377.65 moveto
768.1 367.62 lineto
759.17 373.32 lineto
closepath fill
1 setlinewidth
solid
0 0 0 edgecolor
newpath 764.67 377.65 moveto
768.1 367.62 lineto
759.17 373.32 lineto
closepath stroke
grestore
% N22
gsave
1 setlinewidth
0 0 0 nodecolor
703.9 529.83 65.79 18 ellipse_path stroke
0 0 0 nodecolor
14 /Times-Roman set_font
661.4 526.13 moveto 85 (block_item_list) alignedtext
grestore
% N22->N16
gsave
1 setlinewidth
0 0 0 edgecolor
newpath 679.09 512.94 moveto
656.97 498.78 624.43 477.94 600.09 462.35 curveto
stroke
0 0 0 edgecolor
newpath 601.83 459.31 moveto
591.52 456.86 lineto
598.05 465.2 lineto
closepath fill
1 setlinewidth
solid
0 0 0 edgecolor
newpath 601.83 459.31 moveto
591.52 456.86 lineto
598.05 465.2 lineto
closepath stroke
grestore
% N22->N21
gsave
1 setlinewidth
0 0 0 edgecolor
newpath 705.48 511.5 moveto
706.6 499.16 708.13 482.34 709.42 468.23 curveto
stroke
0 0 0 edgecolor
newpath 712.92 468.37 moveto
710.35 458.09 lineto
705.95 467.73 lineto
closepath fill
1 setlinewidth
solid
0 0 0 edgecolor
newpath 712.92 468.37 moveto
710.35 458.09 lineto
705.95 467.73 lineto
closepath stroke
grestore
% N23
gsave
1 setlinewidth
0 0 0 nodecolor
832.9 440.09 34.8 26.74 ellipse_path stroke
0 0 0 nodecolor
14 /Times-Roman set_font
829.4 443.89 moveto 7 (c) alignedtext
0 0 0 nodecolor
14 /Times-Roman set_font
816.4 428.89 moveto 33 (\(char\)) alignedtext
grestore
% N24
gsave
1 setlinewidth
0 0 0 nodecolor
913.9 440.09 28.07 26.74 ellipse_path stroke
0 0 0 nodecolor
14 /Times-Roman set_font
911.9 443.89 moveto 4 (i) alignedtext
0 0 0 nodecolor
14 /Times-Roman set_font
901.9 428.89 moveto 24 (\(int\)) alignedtext
grestore
% N25
gsave
1 setlinewidth
0 0 0 nodecolor
847.9 529.83 60.39 18 ellipse_path stroke
0 0 0 nodecolor
14 /Times-Roman set_font
809.4 526.13 moveto 77 (= \(char to int\)) alignedtext
grestore
% N25->N23
gsave
1 setlinewidth
0 0 0 edgecolor
newpath 844.93 511.5 moveto
843.25 501.68 841.09 489.04 839.06 477.17 curveto
stroke
0 0 0 edgecolor
newpath 842.47 476.31 moveto
837.33 467.04 lineto
835.57 477.49 lineto
closepath fill
1 setlinewidth
solid
0 0 0 edgecolor
newpath 842.47 476.31 moveto
837.33 467.04 lineto
835.57 477.49 lineto
closepath stroke
grestore
% N25->N24
gsave
1 setlinewidth
0 0 0 edgecolor
newpath 860.62 511.91 moveto
869.43 500.2 881.39 484.31 891.74 470.54 curveto
stroke
0 0 0 edgecolor
newpath 894.72 472.4 moveto
897.94 462.3 lineto
889.13 468.19 lineto
closepath fill
1 setlinewidth
solid
0 0 0 edgecolor
newpath 894.72 472.4 moveto
897.94 462.3 lineto
889.13 468.19 lineto
closepath stroke
grestore
% N26
gsave
1 setlinewidth
0 0 0 nodecolor
712.9 610.7 65.79 18 ellipse_path stroke
0 0 0 nodecolor
14 /Times-Roman set_font
670.4 607 moveto 85 (block_item_list) alignedtext
grestore
% N26->N22
gsave
1 setlinewidth
0 0 0 edgecolor
newpath 710.94 592.59 moveto
709.79 582.46 708.3 569.4 706.98 557.9 curveto
stroke
0 0 0 edgecolor
newpath 710.46 557.45 moveto
705.84 547.91 lineto
703.5 558.24 lineto
closepath fill
1 setlinewidth
solid
0 0 0 edgecolor
newpath 710.46 557.45 moveto
705.84 547.91 lineto
703.5 558.24 lineto
closepath stroke
grestore
% N26->N25
gsave
1 setlinewidth
0 0 0 edgecolor
newpath 739.57 594.12 moveto
760.6 581.83 790.09 564.6 813 551.22 curveto
stroke
0 0 0 edgecolor
newpath 814.87 554.18 moveto
821.74 546.11 lineto
811.34 548.13 lineto
closepath fill
1 setlinewidth
solid
0 0 0 edgecolor
newpath 814.87 554.18 moveto
821.74 546.11 lineto
811.34 548.13 lineto
closepath stroke
grestore
% N27
gsave
1 setlinewidth
0 0 0 nodecolor
630.9 682.7 78.79 18 ellipse_path stroke
0 0 0 nodecolor
14 /Times-Roman set_font
578.4 679 moveto 105 (function_definition) alignedtext
grestore
% N27->N1
gsave
1 setlinewidth
0 0 0 edgecolor
newpath 611.7 665.11 moveto
601.28 656.11 588.24 644.84 576.83 634.97 curveto
stroke
0 0 0 edgecolor
newpath 579.09 632.3 moveto
569.23 628.41 lineto
574.51 637.6 lineto
closepath fill
1 setlinewidth
solid
0 0 0 edgecolor
newpath 579.09 632.3 moveto
569.23 628.41 lineto
574.51 637.6 lineto
closepath stroke
grestore
% N27->N26
gsave
1 setlinewidth
0 0 0 edgecolor
newpath 650.33 665.11 moveto
660.95 656.05 674.27 644.67 685.89 634.76 curveto
stroke
0 0 0 edgecolor
newpath 688.27 637.33 moveto
693.6 628.17 lineto
683.72 632 lineto
closepath fill
1 setlinewidth
solid
0 0 0 edgecolor
newpath 688.27 637.33 moveto
693.6 628.17 lineto
683.72 632 lineto
closepath stroke
grestore
% N28
gsave
1 setlinewidth
0 0 0 nodecolor
630.9 754.7 82.59 18 ellipse_path stroke
0 0 0 nodecolor
14 /Times-Roman set_font
575.4 751 moveto 111 (external_declaration) alignedtext
grestore
% N28->N27
gsave
1 setlinewidth
0 0 0 edgecolor
newpath 630.9 736.4 moveto
630.9 728.68 630.9 719.41 630.9 710.81 curveto
stroke
0 0 0 edgecolor
newpath 634.4 710.8 moveto
630.9 700.8 lineto
627.4 710.8 lineto
closepath fill
1 setlinewidth
solid
0 0 0 edgecolor
newpath 634.4 710.8 moveto
630.9 700.8 lineto
627.4 710.8 lineto
closepath stroke
grestore
% N29
gsave
1 setlinewidth
0 0 0 nodecolor
630.9 826.7 65.79 18 ellipse_path stroke
0 0 0 nodecolor
14 /Times-Roman set_font
588.4 823 moveto 85 (translation_unit) alignedtext
grestore
% N29->N28
gsave
1 setlinewidth
0 0 0 edgecolor
newpath 630.9 808.4 moveto
630.9 800.68 630.9 791.41 630.9 782.81 curveto
stroke
0 0 0 edgecolor
newpath 634.4 782.8 moveto
630.9 772.8 lineto
627.4 782.8 lineto
closepath fill
1 setlinewidth
solid
0 0 0 edgecolor
newpath 634.4 782.8 moveto
630.9 772.8 lineto
627.4 782.8 lineto
closepath stroke
grestore
% N30
gsave
1 setlinewidth
0 0 0 nodecolor
630.9 898.7 104.78 18 ellipse_path stroke
0 0 0 nodecolor
14 /Times-Roman set_font
558.4 895 moveto 145 (translation_unit_or_empty) alignedtext
grestore
% N30->N29
gsave
1 setlinewidth
0 0 0 edgecolor
newpath 630.9 880.4 moveto
630.9 872.68 630.9 863.41 630.9 854.81 curveto
stroke
0 0 0 edgecolor
newpath 634.4 854.8 moveto
630.9 844.8 lineto
627.4 854.8 lineto
closepath fill
1 setlinewidth
solid
0 0 0 edgecolor
newpath 634.4 854.8 moveto
630.9 844.8 lineto
627.4 854.8 lineto
closepath stroke
grestore
endpage
showpage
grestore
%%PageTrailer
%%EndPage: 1
%%Trailer
%%Pages: 1
%%BoundingBox: 36 36 986 961
end
restore
%%EOF
