%!PS-Adobe-3.0
%%Creator: graphviz version 2.38.0 (20140413.2041)
%%Title: G
%%Pages: (atend)
%%BoundingBox: (atend)
%%EndComments
save
%%BeginProlog
/DotDict 200 dict def
DotDict begin

/setupLatin1 {
mark
/EncodingVector 256 array def
 EncodingVector 0

ISOLatin1Encoding 0 255 getinterval putinterval
EncodingVector 45 /hyphen put

% Set up ISO Latin 1 character encoding
/starnetISO {
        dup dup findfont dup length dict begin
        { 1 index /FID ne { def }{ pop pop } ifelse
        } forall
        /Encoding EncodingVector def
        currentdict end definefont
} def
/Times-Roman starnetISO def
/Times-Italic starnetISO def
/Times-Bold starnetISO def
/Times-BoldItalic starnetISO def
/Helvetica starnetISO def
/Helvetica-Oblique starnetISO def
/Helvetica-Bold starnetISO def
/Helvetica-BoldOblique starnetISO def
/Courier starnetISO def
/Courier-Oblique starnetISO def
/Courier-Bold starnetISO def
/Courier-BoldOblique starnetISO def
cleartomark
} bind def

%%BeginResource: procset graphviz 0 0
/coord-font-family /Times-Roman def
/default-font-family /Times-Roman def
/coordfont coord-font-family findfont 8 scalefont def

/InvScaleFactor 1.0 def
/set_scale {
       dup 1 exch div /InvScaleFactor exch def
       scale
} bind def

% styles
/solid { [] 0 setdash } bind def
/dashed { [9 InvScaleFactor mul dup ] 0 setdash } bind def
/dotted { [1 InvScaleFactor mul 6 InvScaleFactor mul] 0 setdash } bind def
/invis {/fill {newpath} def /stroke {newpath} def /show {pop newpath} def} bind def
/bold { 2 setlinewidth } bind def
/filled { } bind def
/unfilled { } bind def
/rounded { } bind def
/diagonals { } bind def
/tapered { } bind def

% hooks for setting color 
/nodecolor { sethsbcolor } bind def
/edgecolor { sethsbcolor } bind def
/graphcolor { sethsbcolor } bind def
/nopcolor {pop pop pop} bind def

/beginpage {	% i j npages
	/npages exch def
	/j exch def
	/i exch def
	/str 10 string def
	npages 1 gt {
		gsave
			coordfont setfont
			0 0 moveto
			(\() show i str cvs show (,) show j str cvs show (\)) show
		grestore
	} if
} bind def

/set_font {
	findfont exch
	scalefont setfont
} def

% draw text fitted to its expected width
/alignedtext {			% width text
	/text exch def
	/width exch def
	gsave
		width 0 gt {
			[] 0 setdash
			text stringwidth pop width exch sub text length div 0 text ashow
		} if
	grestore
} def

/boxprim {				% xcorner ycorner xsize ysize
		4 2 roll
		moveto
		2 copy
		exch 0 rlineto
		0 exch rlineto
		pop neg 0 rlineto
		closepath
} bind def

/ellipse_path {
	/ry exch def
	/rx exch def
	/y exch def
	/x exch def
	matrix currentmatrix
	newpath
	x y translate
	rx ry scale
	0 0 1 0 360 arc
	setmatrix
} bind def

/endpage { showpage } bind def
/showpage { } def

/layercolorseq
	[	% layer color sequence - darkest to lightest
		[0 0 0]
		[.2 .8 .8]
		[.4 .8 .8]
		[.6 .8 .8]
		[.8 .8 .8]
	]
def

/layerlen layercolorseq length def

/setlayer {/maxlayer exch def /curlayer exch def
	layercolorseq curlayer 1 sub layerlen mod get
	aload pop sethsbcolor
	/nodecolor {nopcolor} def
	/edgecolor {nopcolor} def
	/graphcolor {nopcolor} def
} bind def

/onlayer { curlayer ne {invis} if } def

/onlayers {
	/myupper exch def
	/mylower exch def
	curlayer mylower lt
	curlayer myupper gt
	or
	{invis} if
} def

/curlayer 0 def

%%EndResource
%%EndProlog
%%BeginSetup
14 default-font-family set_font
1 setmiterlimit
% /arrowlength 10 def
% /arrowwidth 5 def

% make sure pdfmark is harmless for PS-interpreters other than Distiller
/pdfmark where {pop} {userdict /pdfmark /cleartomark load put} ifelse
% make '<<' and '>>' safe on PS Level 1 devices
/languagelevel where {pop languagelevel}{1} ifelse
2 lt {
    userdict (<<) cvn ([) cvn load put
    userdict (>>) cvn ([) cvn load put
} if

%%EndSetup
setupLatin1
%%Page: 1 1
%%PageBoundingBox: 36 36 3018 1265
%%PageOrientation: Portrait
0 0 1 beginpage
gsave
36 36 2982 1229 boxprim clip newpath
1 1 set_scale 0 rotate 40 40 translate
% N1
gsave
1 setlinewidth
0 0 0 nodecolor
1120.29 385.83 55.79 18 ellipse_path stroke
0 0 0 nodecolor
14 /Times-Roman set_font
1085.29 382.13 moveto 70 (decl_body_1) alignedtext
grestore
% int
gsave
1 setlinewidth
0 0 0 nodecolor
1175.29 296.09 27 18 ellipse_path stroke
0 0 0 nodecolor
14 /Times-Roman set_font
1167.79 292.39 moveto 15 (int) alignedtext
grestore
% N1->int
gsave
1 setlinewidth
0 0 0 edgecolor
newpath 1130.9 367.91 moveto
1139.12 354.8 1150.63 336.44 1159.87 321.7 curveto
stroke
0 0 0 edgecolor
newpath 1162.93 323.4 moveto
1165.28 313.07 lineto
1157 319.68 lineto
closepath fill
1 setlinewidth
solid
0 0 0 edgecolor
newpath 1162.93 323.4 moveto
1165.28 313.07 lineto
1157 319.68 lineto
closepath stroke
grestore
% N2
gsave
1 setlinewidth
0 0 0 nodecolor
1093.29 475.57 82.59 18 ellipse_path stroke
0 0 0 nodecolor
14 /Times-Roman set_font
1037.79 471.87 moveto 111 (external_declaration) alignedtext
grestore
% N2->N1
gsave
1 setlinewidth
0 0 0 edgecolor
newpath 1098.63 457.24 moveto
1102.46 444.78 1107.7 427.75 1112.07 413.56 curveto
stroke
0 0 0 edgecolor
newpath 1115.46 414.42 moveto
1115.06 403.83 lineto
1108.77 412.36 lineto
closepath fill
1 setlinewidth
solid
0 0 0 edgecolor
newpath 1115.46 414.42 moveto
1115.06 403.83 lineto
1108.77 412.36 lineto
closepath stroke
grestore
% N3
gsave
1 setlinewidth
0 0 0 nodecolor
1098.29 556.44 65.79 18 ellipse_path stroke
0 0 0 nodecolor
14 /Times-Roman set_font
1055.79 552.74 moveto 85 (translation_unit) alignedtext
grestore
% N3->N2
gsave
1 setlinewidth
0 0 0 edgecolor
newpath 1097.21 538.33 moveto
1096.56 528.2 1095.74 515.14 1095.01 503.64 curveto
stroke
0 0 0 edgecolor
newpath 1098.5 503.41 moveto
1094.37 493.65 lineto
1091.51 503.85 lineto
closepath fill
1 setlinewidth
solid
0 0 0 edgecolor
newpath 1098.5 503.41 moveto
1094.37 493.65 lineto
1091.51 503.85 lineto
closepath stroke
grestore
% N4
gsave
1 setlinewidth
0 0 0 nodecolor
1102.29 116.61 50.82 26.74 ellipse_path stroke
0 0 0 nodecolor
14 /Times-Roman set_font
1098.79 120.41 moveto 7 (0) alignedtext
0 0 0 nodecolor
14 /Times-Roman set_font
1074.29 105.41 moveto 56 (\(int const\)) alignedtext
grestore
% N5
gsave
1 setlinewidth
0 0 0 nodecolor
1053.29 206.35 27 18 ellipse_path stroke
0 0 0 nodecolor
14 /Times-Roman set_font
1048.79 202.65 moveto 9 (=) alignedtext
grestore
% N5->N4
gsave
1 setlinewidth
0 0 0 edgecolor
newpath 1062.28 189.26 moveto
1068.21 178.65 1076.19 164.35 1083.47 151.32 curveto
stroke
0 0 0 edgecolor
newpath 1086.54 153 moveto
1088.36 142.56 lineto
1080.42 149.59 lineto
closepath fill
1 setlinewidth
solid
0 0 0 edgecolor
newpath 1086.54 153 moveto
1088.36 142.56 lineto
1080.42 149.59 lineto
closepath stroke
grestore
% count
gsave
1 setlinewidth
0 0 0 nodecolor
1003.29 116.61 30.59 18 ellipse_path stroke
0 0 0 nodecolor
14 /Times-Roman set_font
987.79 112.91 moveto 31 (count) alignedtext
grestore
% N5->count
gsave
1 setlinewidth
0 0 0 edgecolor
newpath 1044.12 189.26 moveto
1036.7 176.23 1026.11 157.65 1017.57 142.67 curveto
stroke
0 0 0 edgecolor
newpath 1020.57 140.85 moveto
1012.57 133.9 lineto
1014.48 144.32 lineto
closepath fill
1 setlinewidth
solid
0 0 0 edgecolor
newpath 1020.57 140.85 moveto
1012.57 133.9 lineto
1014.48 144.32 lineto
closepath stroke
grestore
% N6
gsave
1 setlinewidth
0 0 0 nodecolor
1053.29 296.09 77.19 18 ellipse_path stroke
0 0 0 nodecolor
14 /Times-Roman set_font
1001.79 292.39 moveto 103 (init_declarator_list) alignedtext
grestore
% N6->N5
gsave
1 setlinewidth
0 0 0 edgecolor
newpath 1053.29 277.76 moveto
1053.29 265.42 1053.29 248.6 1053.29 234.49 curveto
stroke
0 0 0 edgecolor
newpath 1056.79 234.35 moveto
1053.29 224.35 lineto
1049.79 234.35 lineto
closepath fill
1 setlinewidth
solid
0 0 0 edgecolor
newpath 1056.79 234.35 moveto
1053.29 224.35 lineto
1049.79 234.35 lineto
closepath stroke
grestore
% N7
gsave
1 setlinewidth
0 0 0 nodecolor
859.29 206.35 50.82 26.74 ellipse_path stroke
0 0 0 nodecolor
14 /Times-Roman set_font
855.79 210.15 moveto 7 (0) alignedtext
0 0 0 nodecolor
14 /Times-Roman set_font
831.29 195.15 moveto 56 (\(int const\)) alignedtext
grestore
% N8
gsave
1 setlinewidth
0 0 0 nodecolor
859.29 296.09 27 18 ellipse_path stroke
0 0 0 nodecolor
14 /Times-Roman set_font
854.79 292.39 moveto 9 (=) alignedtext
grestore
% N8->N7
gsave
1 setlinewidth
0 0 0 edgecolor
newpath 859.29 277.76 moveto
859.29 267.94 859.29 255.3 859.29 243.43 curveto
stroke
0 0 0 edgecolor
newpath 862.79 243.3 moveto
859.29 233.3 lineto
855.79 243.3 lineto
closepath fill
1 setlinewidth
solid
0 0 0 edgecolor
newpath 862.79 243.3 moveto
859.29 233.3 lineto
855.79 243.3 lineto
closepath stroke
grestore
% indent
gsave
1 setlinewidth
0 0 0 nodecolor
960.29 206.35 32.49 18 ellipse_path stroke
0 0 0 nodecolor
14 /Times-Roman set_font
943.29 202.65 moveto 34 (indent) alignedtext
grestore
% N8->indent
gsave
1 setlinewidth
0 0 0 edgecolor
newpath 875.07 281.38 moveto
891.38 267.21 917.06 244.9 935.97 228.48 curveto
stroke
0 0 0 edgecolor
newpath 938.36 231.04 moveto
943.61 221.84 lineto
933.77 225.75 lineto
closepath fill
1 setlinewidth
solid
0 0 0 edgecolor
newpath 938.36 231.04 moveto
943.61 221.84 lineto
933.77 225.75 lineto
closepath stroke
grestore
% N9
gsave
1 setlinewidth
0 0 0 nodecolor
931.29 385.83 77.19 18 ellipse_path stroke
0 0 0 nodecolor
14 /Times-Roman set_font
879.79 382.13 moveto 103 (init_declarator_list) alignedtext
grestore
% N9->N6
gsave
1 setlinewidth
0 0 0 edgecolor
newpath 953.95 368.53 moveto
973.09 354.77 1000.7 334.92 1021.95 319.63 curveto
stroke
0 0 0 edgecolor
newpath 1024.26 322.28 moveto
1030.34 313.6 lineto
1020.18 316.6 lineto
closepath fill
1 setlinewidth
solid
0 0 0 edgecolor
newpath 1024.26 322.28 moveto
1030.34 313.6 lineto
1020.18 316.6 lineto
closepath stroke
grestore
% N9->N8
gsave
1 setlinewidth
0 0 0 edgecolor
newpath 917.41 367.91 moveto
906.24 354.3 890.43 335.03 878.12 320.03 curveto
stroke
0 0 0 edgecolor
newpath 880.74 317.71 moveto
871.69 312.2 lineto
875.33 322.15 lineto
closepath fill
1 setlinewidth
solid
0 0 0 edgecolor
newpath 880.74 317.71 moveto
871.69 312.2 lineto
875.33 322.15 lineto
closepath stroke
grestore
% N10
gsave
1 setlinewidth
0 0 0 nodecolor
931.29 296.09 27 18 ellipse_path stroke
0 0 0 nodecolor
14 /Times-Roman set_font
929.29 292.39 moveto 4 (,) alignedtext
grestore
% N9->N10
gsave
1 setlinewidth
0 0 0 edgecolor
newpath 931.29 367.5 moveto
931.29 355.16 931.29 338.34 931.29 324.23 curveto
stroke
0 0 0 edgecolor
newpath 934.79 324.09 moveto
931.29 314.09 lineto
927.79 324.09 lineto
closepath fill
1 setlinewidth
solid
0 0 0 edgecolor
newpath 934.79 324.09 moveto
931.29 314.09 lineto
927.79 324.09 lineto
closepath stroke
grestore
% N11
gsave
1 setlinewidth
0 0 0 nodecolor
934.29 475.57 55.79 18 ellipse_path stroke
0 0 0 nodecolor
14 /Times-Roman set_font
899.29 471.87 moveto 70 (decl_body_2) alignedtext
grestore
% N11->int
gsave
1 setlinewidth
0 0 0 edgecolor
newpath 958.78 459.32 moveto
976.22 447.77 999.6 430.84 1017.29 412.7 curveto
1037.71 391.76 1032.55 377.36 1055.29 358.96 curveto
1086.87 333.42 1103.92 342.93 1139.29 322.96 curveto
1142.99 320.87 1146.76 318.49 1150.4 316.03 curveto
stroke
0 0 0 edgecolor
newpath 1152.43 318.88 moveto
1158.58 310.25 lineto
1148.4 313.16 lineto
closepath fill
1 setlinewidth
solid
0 0 0 edgecolor
newpath 1152.43 318.88 moveto
1158.58 310.25 lineto
1148.4 313.16 lineto
closepath stroke
grestore
% N11->N9
gsave
1 setlinewidth
0 0 0 edgecolor
newpath 933.7 457.24 moveto
933.28 444.9 932.7 428.08 932.22 413.97 curveto
stroke
0 0 0 edgecolor
newpath 935.71 413.71 moveto
931.87 403.83 lineto
928.72 413.94 lineto
closepath fill
1 setlinewidth
solid
0 0 0 edgecolor
newpath 935.71 413.71 moveto
931.87 403.83 lineto
928.72 413.94 lineto
closepath stroke
grestore
% N12
gsave
1 setlinewidth
0 0 0 nodecolor
932.29 556.44 82.59 18 ellipse_path stroke
0 0 0 nodecolor
14 /Times-Roman set_font
876.79 552.74 moveto 111 (external_declaration) alignedtext
grestore
% N12->N11
gsave
1 setlinewidth
0 0 0 edgecolor
newpath 932.73 538.33 moveto
932.98 528.3 933.31 515.41 933.6 504 curveto
stroke
0 0 0 edgecolor
newpath 937.1 503.74 moveto
933.86 493.65 lineto
930.11 503.56 lineto
closepath fill
1 setlinewidth
solid
0 0 0 edgecolor
newpath 937.1 503.74 moveto
933.86 493.65 lineto
930.11 503.56 lineto
closepath stroke
grestore
% N13
gsave
1 setlinewidth
0 0 0 nodecolor
932.29 628.44 65.79 18 ellipse_path stroke
0 0 0 nodecolor
14 /Times-Roman set_font
889.79 624.74 moveto 85 (translation_unit) alignedtext
grestore
% N13->N3
gsave
1 setlinewidth
0 0 0 edgecolor
newpath 966.69 612.94 moveto
992.17 602.19 1027.1 587.46 1054.56 575.88 curveto
stroke
0 0 0 edgecolor
newpath 1056.09 579.04 moveto
1063.94 571.93 lineto
1053.37 572.59 lineto
closepath fill
1 setlinewidth
solid
0 0 0 edgecolor
newpath 1056.09 579.04 moveto
1063.94 571.93 lineto
1053.37 572.59 lineto
closepath stroke
grestore
% N13->N12
gsave
1 setlinewidth
0 0 0 edgecolor
newpath 932.29 610.14 moveto
932.29 602.42 932.29 593.15 932.29 584.55 curveto
stroke
0 0 0 edgecolor
newpath 935.79 584.54 moveto
932.29 574.55 lineto
928.79 584.55 lineto
closepath fill
1 setlinewidth
solid
0 0 0 edgecolor
newpath 935.79 584.54 moveto
932.29 574.55 lineto
928.79 584.55 lineto
closepath stroke
grestore
% N14
gsave
1 setlinewidth
0 0 0 nodecolor
752.29 556.44 79.09 18 ellipse_path stroke
0 0 0 nodecolor
14 /Times-Roman set_font
699.29 552.74 moveto 106 (function_declarator) alignedtext
grestore
% N15
gsave
1 setlinewidth
0 0 0 nodecolor
693.29 475.57 28.7 18 ellipse_path stroke
0 0 0 nodecolor
14 /Times-Roman set_font
679.29 471.87 moveto 28 (main) alignedtext
grestore
% N14->N15
gsave
1 setlinewidth
0 0 0 edgecolor
newpath 739.49 538.33 moveto
731.12 527.14 720.07 512.37 710.88 500.08 curveto
stroke
0 0 0 edgecolor
newpath 713.66 497.96 moveto
704.87 492.05 lineto
708.06 502.15 lineto
closepath fill
1 setlinewidth
solid
0 0 0 edgecolor
newpath 713.66 497.96 moveto
704.87 492.05 lineto
708.06 502.15 lineto
closepath stroke
grestore
% N16
gsave
1 setlinewidth
0 0 0 nodecolor
800.29 475.57 60.21 26.74 ellipse_path stroke
0 0 0 nodecolor
14 /Times-Roman set_font
792.79 479.37 moveto 15 (int) alignedtext
0 0 0 nodecolor
14 /Times-Roman set_font
765.79 464.37 moveto 69 (\(return type\)) alignedtext
grestore
% N14->N16
gsave
1 setlinewidth
0 0 0 edgecolor
newpath 762.71 538.33 moveto
767.69 530.14 773.84 520.04 779.7 510.4 curveto
stroke
0 0 0 edgecolor
newpath 782.76 512.1 moveto
784.97 501.74 lineto
776.79 508.46 lineto
closepath fill
1 setlinewidth
solid
0 0 0 edgecolor
newpath 782.76 512.1 moveto
784.97 501.74 lineto
776.79 508.46 lineto
closepath stroke
grestore
% N17
gsave
1 setlinewidth
0 0 0 nodecolor
521.29 26.87 50.82 26.74 ellipse_path stroke
0 0 0 nodecolor
14 /Times-Roman set_font
517.79 30.67 moveto 7 (3) alignedtext
0 0 0 nodecolor
14 /Times-Roman set_font
493.29 15.67 moveto 56 (\(int const\)) alignedtext
grestore
% N18
gsave
1 setlinewidth
0 0 0 nodecolor
569.29 116.61 27 18 ellipse_path stroke
0 0 0 nodecolor
14 /Times-Roman set_font
564.79 112.91 moveto 9 (=) alignedtext
grestore
% N18->N17
gsave
1 setlinewidth
0 0 0 edgecolor
newpath 560.49 99.52 moveto
554.74 89.01 547.01 74.88 539.94 61.96 curveto
stroke
0 0 0 edgecolor
newpath 542.81 59.92 moveto
534.94 52.82 lineto
536.67 63.27 lineto
closepath fill
1 setlinewidth
solid
0 0 0 edgecolor
newpath 542.81 59.92 moveto
534.94 52.82 lineto
536.67 63.27 lineto
closepath stroke
grestore
% x
gsave
1 setlinewidth
0 0 0 nodecolor
617.29 26.87 27 18 ellipse_path stroke
0 0 0 nodecolor
14 /Times-Roman set_font
613.79 23.17 moveto 7 (x) alignedtext
grestore
% N18->x
gsave
1 setlinewidth
0 0 0 edgecolor
newpath 578.1 99.52 moveto
585.22 86.49 595.39 67.91 603.58 52.93 curveto
stroke
0 0 0 edgecolor
newpath 606.65 54.61 moveto
608.38 44.16 lineto
600.51 51.25 lineto
closepath fill
1 setlinewidth
solid
0 0 0 edgecolor
newpath 606.65 54.61 moveto
608.38 44.16 lineto
600.51 51.25 lineto
closepath stroke
grestore
% N19
gsave
1 setlinewidth
0 0 0 nodecolor
569.29 206.35 77.19 18 ellipse_path stroke
0 0 0 nodecolor
14 /Times-Roman set_font
517.79 202.65 moveto 103 (init_declarator_list) alignedtext
grestore
% N19->N18
gsave
1 setlinewidth
0 0 0 edgecolor
newpath 569.29 188.02 moveto
569.29 175.68 569.29 158.86 569.29 144.75 curveto
stroke
0 0 0 edgecolor
newpath 572.79 144.61 moveto
569.29 134.61 lineto
565.79 144.61 lineto
closepath fill
1 setlinewidth
solid
0 0 0 edgecolor
newpath 572.79 144.61 moveto
569.29 134.61 lineto
565.79 144.61 lineto
closepath stroke
grestore
% N20
gsave
1 setlinewidth
0 0 0 nodecolor
762.29 116.61 50.82 26.74 ellipse_path stroke
0 0 0 nodecolor
14 /Times-Roman set_font
758.79 120.41 moveto 7 (5) alignedtext
0 0 0 nodecolor
14 /Times-Roman set_font
734.29 105.41 moveto 56 (\(int const\)) alignedtext
grestore
% N21
gsave
1 setlinewidth
0 0 0 nodecolor
691.29 206.35 27 18 ellipse_path stroke
0 0 0 nodecolor
14 /Times-Roman set_font
686.79 202.65 moveto 9 (=) alignedtext
grestore
% N21->N20
gsave
1 setlinewidth
0 0 0 edgecolor
newpath 703.66 190.07 moveto
712.69 178.9 725.27 163.37 736.45 149.54 curveto
stroke
0 0 0 edgecolor
newpath 739.27 151.62 moveto
742.84 141.64 lineto
733.83 147.22 lineto
closepath fill
1 setlinewidth
solid
0 0 0 edgecolor
newpath 739.27 151.62 moveto
742.84 141.64 lineto
733.83 147.22 lineto
closepath stroke
grestore
% y
gsave
1 setlinewidth
0 0 0 nodecolor
666.29 116.61 27 18 ellipse_path stroke
0 0 0 nodecolor
14 /Times-Roman set_font
662.79 112.91 moveto 7 (y) alignedtext
grestore
% N21->y
gsave
1 setlinewidth
0 0 0 edgecolor
newpath 686.47 188.43 moveto
682.91 175.93 677.99 158.66 673.9 144.3 curveto
stroke
0 0 0 edgecolor
newpath 677.2 143.13 moveto
671.1 134.48 lineto
670.47 145.05 lineto
closepath fill
1 setlinewidth
solid
0 0 0 edgecolor
newpath 677.2 143.13 moveto
671.1 134.48 lineto
670.47 145.05 lineto
closepath stroke
grestore
% N22
gsave
1 setlinewidth
0 0 0 nodecolor
691.29 296.09 77.19 18 ellipse_path stroke
0 0 0 nodecolor
14 /Times-Roman set_font
639.79 292.39 moveto 103 (init_declarator_list) alignedtext
grestore
% N22->N19
gsave
1 setlinewidth
0 0 0 edgecolor
newpath 668.63 278.79 moveto
649.49 265.03 621.89 245.18 600.63 229.89 curveto
stroke
0 0 0 edgecolor
newpath 602.41 226.86 moveto
592.25 223.86 lineto
598.32 232.54 lineto
closepath fill
1 setlinewidth
solid
0 0 0 edgecolor
newpath 602.41 226.86 moveto
592.25 223.86 lineto
598.32 232.54 lineto
closepath stroke
grestore
% N22->N21
gsave
1 setlinewidth
0 0 0 edgecolor
newpath 691.29 277.76 moveto
691.29 265.42 691.29 248.6 691.29 234.49 curveto
stroke
0 0 0 edgecolor
newpath 694.79 234.35 moveto
691.29 224.35 lineto
687.79 234.35 lineto
closepath fill
1 setlinewidth
solid
0 0 0 edgecolor
newpath 694.79 234.35 moveto
691.29 224.35 lineto
687.79 234.35 lineto
closepath stroke
grestore
% N23
gsave
1 setlinewidth
0 0 0 nodecolor
763.29 206.35 27 18 ellipse_path stroke
0 0 0 nodecolor
14 /Times-Roman set_font
761.29 202.65 moveto 4 (,) alignedtext
grestore
% N22->N23
gsave
1 setlinewidth
0 0 0 edgecolor
newpath 705.17 278.17 moveto
716.34 264.56 732.16 245.29 744.47 230.29 curveto
stroke
0 0 0 edgecolor
newpath 747.26 232.41 moveto
750.89 222.46 lineto
741.84 227.97 lineto
closepath fill
1 setlinewidth
solid
0 0 0 edgecolor
newpath 747.26 232.41 moveto
750.89 222.46 lineto
741.84 227.97 lineto
closepath stroke
grestore
% N24
gsave
1 setlinewidth
0 0 0 nodecolor
691.29 385.83 55.79 18 ellipse_path stroke
0 0 0 nodecolor
14 /Times-Roman set_font
656.29 382.13 moveto 70 (decl_body_2) alignedtext
grestore
% N24->int
gsave
1 setlinewidth
0 0 0 edgecolor
newpath 738.73 376.3 moveto
769.13 370.97 809.47 364.16 845.29 358.96 curveto
975.57 340.05 1016.68 370.87 1139.29 322.96 curveto
1143.32 321.38 1147.32 319.25 1151.11 316.88 curveto
stroke
0 0 0 edgecolor
newpath 1153.25 319.66 moveto
1159.47 311.08 lineto
1149.25 313.91 lineto
closepath fill
1 setlinewidth
solid
0 0 0 edgecolor
newpath 1153.25 319.66 moveto
1159.47 311.08 lineto
1149.25 313.91 lineto
closepath stroke
grestore
% N24->N22
gsave
1 setlinewidth
0 0 0 edgecolor
newpath 691.29 367.5 moveto
691.29 355.16 691.29 338.34 691.29 324.23 curveto
stroke
0 0 0 edgecolor
newpath 694.79 324.09 moveto
691.29 314.09 lineto
687.79 324.09 lineto
closepath fill
1 setlinewidth
solid
0 0 0 edgecolor
newpath 694.79 324.09 moveto
691.29 314.09 lineto
687.79 324.09 lineto
closepath stroke
grestore
% N25
gsave
1 setlinewidth
0 0 0 nodecolor
168.29 26.87 168.08 26.74 ellipse_path stroke
0 0 0 nodecolor
14 /Times-Roman set_font
137.79 30.67 moveto 61 (ackermann) alignedtext
0 0 0 nodecolor
14 /Times-Roman set_font
57.29 15.67 moveto 222 (\(\('int', ['int', 'int'], 'function_undeclared'\)\)) alignedtext
grestore
% N26
gsave
1 setlinewidth
0 0 0 nodecolor
1109.29 1194.53 28.07 26.74 ellipse_path stroke
0 0 0 nodecolor
14 /Times-Roman set_font
1105.79 1198.33 moveto 7 (x) alignedtext
0 0 0 nodecolor
14 /Times-Roman set_font
1097.29 1183.33 moveto 24 (\(int\)) alignedtext
grestore
% N27
gsave
1 setlinewidth
0 0 0 nodecolor
1184.29 1194.53 28.07 26.74 ellipse_path stroke
0 0 0 nodecolor
14 /Times-Roman set_font
1180.79 1198.33 moveto 7 (y) alignedtext
0 0 0 nodecolor
14 /Times-Roman set_font
1172.29 1183.33 moveto 24 (\(int\)) alignedtext
grestore
% N28
gsave
1 setlinewidth
0 0 0 nodecolor
337.29 116.61 84.29 26.74 ellipse_path stroke
0 0 0 nodecolor
14 /Times-Roman set_font
285.79 120.41 moveto 103 (postfix_expression) alignedtext
0 0 0 nodecolor
14 /Times-Roman set_font
299.29 105.41 moveto 76 (\( FUNC call \)) alignedtext
grestore
% N28->N25
gsave
1 setlinewidth
0 0 0 edgecolor
newpath 294.21 93.24 moveto
273.24 82.35 247.74 69.12 225.19 57.41 curveto
stroke
0 0 0 edgecolor
newpath 226.55 54.17 moveto
216.06 52.67 lineto
223.32 60.38 lineto
closepath fill
1 setlinewidth
solid
0 0 0 edgecolor
newpath 226.55 54.17 moveto
216.06 52.67 lineto
223.32 60.38 lineto
closepath stroke
grestore
% N29
gsave
1 setlinewidth
0 0 0 nodecolor
381.29 26.87 27 18 ellipse_path stroke
0 0 0 nodecolor
14 /Times-Roman set_font
369.29 23.17 moveto 24 (N26) alignedtext
grestore
% N28->N29
gsave
1 setlinewidth
0 0 0 edgecolor
newpath 350.25 89.76 moveto
356.04 78.23 362.83 64.69 368.58 53.21 curveto
stroke
0 0 0 edgecolor
newpath 371.77 54.66 moveto
373.12 44.15 lineto
365.51 51.52 lineto
closepath fill
1 setlinewidth
solid
0 0 0 edgecolor
newpath 371.77 54.66 moveto
373.12 44.15 lineto
365.51 51.52 lineto
closepath stroke
grestore
% N30
gsave
1 setlinewidth
0 0 0 nodecolor
447.29 206.35 27 18 ellipse_path stroke
0 0 0 nodecolor
14 /Times-Roman set_font
442.79 202.65 moveto 9 (=) alignedtext
grestore
% N30->N28
gsave
1 setlinewidth
0 0 0 edgecolor
newpath 430.58 192.02 moveto
416.07 180.45 394.49 163.24 375.74 148.28 curveto
stroke
0 0 0 edgecolor
newpath 377.91 145.53 moveto
367.91 142.03 lineto
373.54 151 lineto
closepath fill
1 setlinewidth
solid
0 0 0 edgecolor
newpath 377.91 145.53 moveto
367.91 142.03 lineto
373.54 151 lineto
closepath stroke
grestore
% result
gsave
1 setlinewidth
0 0 0 nodecolor
470.29 116.61 30.59 18 ellipse_path stroke
0 0 0 nodecolor
14 /Times-Roman set_font
454.79 112.91 moveto 31 (result) alignedtext
grestore
% N30->result
gsave
1 setlinewidth
0 0 0 edgecolor
newpath 451.73 188.43 moveto
455 175.93 459.53 158.66 463.29 144.3 curveto
stroke
0 0 0 edgecolor
newpath 466.72 145.04 moveto
465.87 134.48 lineto
459.95 143.26 lineto
closepath fill
1 setlinewidth
solid
0 0 0 edgecolor
newpath 466.72 145.04 moveto
465.87 134.48 lineto
459.95 143.26 lineto
closepath stroke
grestore
% N31
gsave
1 setlinewidth
0 0 0 nodecolor
471.29 296.09 77.19 18 ellipse_path stroke
0 0 0 nodecolor
14 /Times-Roman set_font
419.79 292.39 moveto 103 (init_declarator_list) alignedtext
grestore
% N31->N30
gsave
1 setlinewidth
0 0 0 edgecolor
newpath 466.55 277.76 moveto
463.14 265.3 458.48 248.27 454.6 234.08 curveto
stroke
0 0 0 edgecolor
newpath 457.96 233.07 moveto
451.94 224.35 lineto
451.2 234.92 lineto
closepath fill
1 setlinewidth
solid
0 0 0 edgecolor
newpath 457.96 233.07 moveto
451.94 224.35 lineto
451.2 234.92 lineto
closepath stroke
grestore
% N32
gsave
1 setlinewidth
0 0 0 nodecolor
496.29 385.83 55.79 18 ellipse_path stroke
0 0 0 nodecolor
14 /Times-Roman set_font
461.29 382.13 moveto 70 (decl_body_2) alignedtext
grestore
% N32->int
gsave
1 setlinewidth
0 0 0 edgecolor
newpath 540.28 374.64 moveto
565.36 369.19 597.44 362.83 626.29 358.96 curveto
739.56 343.78 1031.81 361.78 1139.29 322.96 curveto
1143.44 321.46 1147.54 319.33 1151.41 316.94 curveto
stroke
0 0 0 edgecolor
newpath 1153.7 319.61 moveto
1159.9 311.02 lineto
1149.69 313.86 lineto
closepath fill
1 setlinewidth
solid
0 0 0 edgecolor
newpath 1153.7 319.61 moveto
1159.9 311.02 lineto
1149.69 313.86 lineto
closepath stroke
grestore
% N32->N31
gsave
1 setlinewidth
0 0 0 edgecolor
newpath 491.35 367.5 moveto
487.8 355.04 482.95 338.01 478.91 323.82 curveto
stroke
0 0 0 edgecolor
newpath 482.24 322.75 moveto
476.14 314.09 lineto
475.51 324.67 lineto
closepath fill
1 setlinewidth
solid
0 0 0 edgecolor
newpath 482.24 322.75 moveto
476.14 314.09 lineto
475.51 324.67 lineto
closepath stroke
grestore
% N33
gsave
1 setlinewidth
0 0 0 nodecolor
496.29 475.57 65.79 18 ellipse_path stroke
0 0 0 nodecolor
14 /Times-Roman set_font
453.79 471.87 moveto 85 (block_item_list) alignedtext
grestore
% N33->N24
gsave
1 setlinewidth
0 0 0 edgecolor
newpath 528.93 459.88 moveto
562.47 444.79 614.75 421.27 650.89 405.01 curveto
stroke
0 0 0 edgecolor
newpath 652.48 408.13 moveto
660.16 400.84 lineto
649.6 401.75 lineto
closepath fill
1 setlinewidth
solid
0 0 0 edgecolor
newpath 652.48 408.13 moveto
660.16 400.84 lineto
649.6 401.75 lineto
closepath stroke
grestore
% N33->N32
gsave
1 setlinewidth
0 0 0 edgecolor
newpath 496.29 457.24 moveto
496.29 444.9 496.29 428.08 496.29 413.97 curveto
stroke
0 0 0 edgecolor
newpath 499.79 413.83 moveto
496.29 403.83 lineto
492.79 413.83 lineto
closepath fill
1 setlinewidth
solid
0 0 0 edgecolor
newpath 499.79 413.83 moveto
496.29 403.83 lineto
492.79 413.83 lineto
closepath stroke
grestore
% N34
gsave
1 setlinewidth
0 0 0 nodecolor
613.29 475.57 33.47 26.74 ellipse_path stroke
0 0 0 nodecolor
14 /Times-Roman set_font
597.79 479.37 moveto 31 (result) alignedtext
0 0 0 nodecolor
14 /Times-Roman set_font
601.29 464.37 moveto 24 (\(int\)) alignedtext
grestore
% N35
gsave
1 setlinewidth
0 0 0 nodecolor
589.29 556.44 65.79 18 ellipse_path stroke
0 0 0 nodecolor
14 /Times-Roman set_font
546.79 552.74 moveto 85 (block_item_list) alignedtext
grestore
% N35->N33
gsave
1 setlinewidth
0 0 0 edgecolor
newpath 570.02 539.1 moveto
556.55 527.68 538.38 512.27 523.45 499.6 curveto
stroke
0 0 0 edgecolor
newpath 525.43 496.69 moveto
515.54 492.89 lineto
520.9 502.03 lineto
closepath fill
1 setlinewidth
solid
0 0 0 edgecolor
newpath 525.43 496.69 moveto
515.54 492.89 lineto
520.9 502.03 lineto
closepath stroke
grestore
% N35->N34
gsave
1 setlinewidth
0 0 0 edgecolor
newpath 594.5 538.33 moveto
596.89 530.48 599.81 520.86 602.64 511.58 curveto
stroke
0 0 0 edgecolor
newpath 606.07 512.32 moveto
605.63 501.74 lineto
599.37 510.29 lineto
closepath fill
1 setlinewidth
solid
0 0 0 edgecolor
newpath 606.07 512.32 moveto
605.63 501.74 lineto
599.37 510.29 lineto
closepath stroke
grestore
% N36
gsave
1 setlinewidth
0 0 0 nodecolor
752.29 628.44 78.79 18 ellipse_path stroke
0 0 0 nodecolor
14 /Times-Roman set_font
699.79 624.74 moveto 105 (function_definition) alignedtext
grestore
% N36->N14
gsave
1 setlinewidth
0 0 0 edgecolor
newpath 752.29 610.14 moveto
752.29 602.42 752.29 593.15 752.29 584.55 curveto
stroke
0 0 0 edgecolor
newpath 755.79 584.54 moveto
752.29 574.55 lineto
748.79 584.55 lineto
closepath fill
1 setlinewidth
solid
0 0 0 edgecolor
newpath 755.79 584.54 moveto
752.29 574.55 lineto
748.79 584.55 lineto
closepath stroke
grestore
% N36->N35
gsave
1 setlinewidth
0 0 0 edgecolor
newpath 716.92 612.25 moveto
692.16 601.62 658.91 587.34 632.56 576.02 curveto
stroke
0 0 0 edgecolor
newpath 633.77 572.73 moveto
623.2 572 lineto
631 579.16 lineto
closepath fill
1 setlinewidth
solid
0 0 0 edgecolor
newpath 633.77 572.73 moveto
623.2 572 lineto
631 579.16 lineto
closepath stroke
grestore
% N37
gsave
1 setlinewidth
0 0 0 nodecolor
786.29 709.31 82.59 18 ellipse_path stroke
0 0 0 nodecolor
14 /Times-Roman set_font
730.79 705.61 moveto 111 (external_declaration) alignedtext
grestore
% N37->N36
gsave
1 setlinewidth
0 0 0 edgecolor
newpath 778.91 691.2 moveto
774.46 680.86 768.69 667.48 763.66 655.81 curveto
stroke
0 0 0 edgecolor
newpath 766.83 654.32 moveto
759.65 646.52 lineto
760.4 657.09 lineto
closepath fill
1 setlinewidth
solid
0 0 0 edgecolor
newpath 766.83 654.32 moveto
759.65 646.52 lineto
760.4 657.09 lineto
closepath stroke
grestore
% N38
gsave
1 setlinewidth
0 0 0 nodecolor
876.29 799.05 65.79 18 ellipse_path stroke
0 0 0 nodecolor
14 /Times-Roman set_font
833.79 795.35 moveto 85 (translation_unit) alignedtext
grestore
% N38->N13
gsave
1 setlinewidth
0 0 0 edgecolor
newpath 881.97 780.96 moveto
891.74 751.54 911.79 691.16 923.42 656.15 curveto
stroke
0 0 0 edgecolor
newpath 926.77 657.17 moveto
926.6 646.58 lineto
920.12 654.97 lineto
closepath fill
1 setlinewidth
solid
0 0 0 edgecolor
newpath 926.77 657.17 moveto
926.6 646.58 lineto
920.12 654.97 lineto
closepath stroke
grestore
% N38->N37
gsave
1 setlinewidth
0 0 0 edgecolor
newpath 859.36 781.55 moveto
845.62 768.15 826.07 749.09 810.65 734.05 curveto
stroke
0 0 0 edgecolor
newpath 813.05 731.51 moveto
803.45 727.04 lineto
808.17 736.53 lineto
closepath fill
1 setlinewidth
solid
0 0 0 edgecolor
newpath 813.05 731.51 moveto
803.45 727.04 lineto
808.17 736.53 lineto
closepath stroke
grestore
% N39
gsave
1 setlinewidth
0 0 0 nodecolor
1171.29 879.92 79.09 18 ellipse_path stroke
0 0 0 nodecolor
14 /Times-Roman set_font
1118.29 876.22 moveto 106 (function_declarator) alignedtext
grestore
% N40
gsave
1 setlinewidth
0 0 0 nodecolor
1292.29 799.05 50.09 18 ellipse_path stroke
0 0 0 nodecolor
14 /Times-Roman set_font
1261.79 795.35 moveto 61 (ackermann) alignedtext
grestore
% N39->N40
gsave
1 setlinewidth
0 0 0 edgecolor
newpath 1196.07 862.77 moveto
1214.74 850.6 1240.48 833.82 1260.64 820.68 curveto
stroke
0 0 0 edgecolor
newpath 1262.72 823.5 moveto
1269.19 815.11 lineto
1258.9 817.64 lineto
closepath fill
1 setlinewidth
solid
0 0 0 edgecolor
newpath 1262.72 823.5 moveto
1269.19 815.11 lineto
1258.9 817.64 lineto
closepath stroke
grestore
% N41
gsave
1 setlinewidth
0 0 0 nodecolor
1020.29 799.05 60.21 26.74 ellipse_path stroke
0 0 0 nodecolor
14 /Times-Roman set_font
1012.79 802.85 moveto 15 (int) alignedtext
0 0 0 nodecolor
14 /Times-Roman set_font
985.79 787.85 moveto 69 (\(return type\)) alignedtext
grestore
% N39->N41
gsave
1 setlinewidth
0 0 0 edgecolor
newpath 1141.1 863.15 moveto
1120.03 852.15 1091.51 837.25 1067.46 824.69 curveto
stroke
0 0 0 edgecolor
newpath 1068.97 821.53 moveto
1058.49 820 lineto
1065.73 827.73 lineto
closepath fill
1 setlinewidth
solid
0 0 0 edgecolor
newpath 1068.97 821.53 moveto
1058.49 820 lineto
1065.73 827.73 lineto
closepath stroke
grestore
% N42
gsave
1 setlinewidth
0 0 0 nodecolor
1125.29 799.05 27 18 ellipse_path stroke
0 0 0 nodecolor
14 /Times-Roman set_font
1117.79 795.35 moveto 15 (int) alignedtext
grestore
% N39->N42
gsave
1 setlinewidth
0 0 0 edgecolor
newpath 1161.31 861.81 moveto
1154.99 850.98 1146.72 836.8 1139.7 824.76 curveto
stroke
0 0 0 edgecolor
newpath 1142.69 822.93 moveto
1134.63 816.06 lineto
1136.64 826.46 lineto
closepath fill
1 setlinewidth
solid
0 0 0 edgecolor
newpath 1142.69 822.93 moveto
1134.63 816.06 lineto
1136.64 826.46 lineto
closepath stroke
grestore
% N43
gsave
1 setlinewidth
0 0 0 nodecolor
1197.29 799.05 27 18 ellipse_path stroke
0 0 0 nodecolor
14 /Times-Roman set_font
1189.79 795.35 moveto 15 (int) alignedtext
grestore
% N39->N43
gsave
1 setlinewidth
0 0 0 edgecolor
newpath 1176.93 861.81 moveto
1180.33 851.51 1184.72 838.17 1188.56 826.53 curveto
stroke
0 0 0 edgecolor
newpath 1191.94 827.45 moveto
1191.75 816.86 lineto
1185.3 825.26 lineto
closepath fill
1 setlinewidth
solid
0 0 0 edgecolor
newpath 1191.94 827.45 moveto
1191.75 816.86 lineto
1185.3 825.26 lineto
closepath stroke
grestore
% N44
gsave
1 setlinewidth
0 0 0 nodecolor
2782.29 296.09 33.47 26.74 ellipse_path stroke
0 0 0 nodecolor
14 /Times-Roman set_font
2766.79 299.89 moveto 31 (count) alignedtext
0 0 0 nodecolor
14 /Times-Roman set_font
2770.29 284.89 moveto 24 (\(int\)) alignedtext
grestore
% N45
gsave
1 setlinewidth
0 0 0 nodecolor
2793.29 206.35 33.47 26.74 ellipse_path stroke
0 0 0 nodecolor
14 /Times-Roman set_font
2777.79 210.15 moveto 31 (count) alignedtext
0 0 0 nodecolor
14 /Times-Roman set_font
2781.29 195.15 moveto 24 (\(int\)) alignedtext
grestore
% N46
gsave
1 setlinewidth
0 0 0 nodecolor
2691.29 206.35 50.82 26.74 ellipse_path stroke
0 0 0 nodecolor
14 /Times-Roman set_font
2687.79 210.15 moveto 7 (1) alignedtext
0 0 0 nodecolor
14 /Times-Roman set_font
2663.29 195.15 moveto 56 (\(int const\)) alignedtext
grestore
% N47
gsave
1 setlinewidth
0 0 0 nodecolor
2697.29 296.09 33.6 18 ellipse_path stroke
0 0 0 nodecolor
14 /Times-Roman set_font
2679.29 292.39 moveto 36 (+i\(int\)) alignedtext
grestore
% N47->N45
gsave
1 setlinewidth
0 0 0 edgecolor
newpath 2713.58 280.21 moveto
2727.37 267.6 2747.48 249.22 2764.05 234.07 curveto
stroke
0 0 0 edgecolor
newpath 2766.84 236.27 moveto
2771.86 226.94 lineto
2762.12 231.1 lineto
closepath fill
1 setlinewidth
solid
0 0 0 edgecolor
newpath 2766.84 236.27 moveto
2771.86 226.94 lineto
2762.12 231.1 lineto
closepath stroke
grestore
% N47->N46
gsave
1 setlinewidth
0 0 0 edgecolor
newpath 2696.11 277.76 moveto
2695.44 267.94 2694.57 255.3 2693.76 243.43 curveto
stroke
0 0 0 edgecolor
newpath 2697.24 243.04 moveto
2693.07 233.3 lineto
2690.26 243.52 lineto
closepath fill
1 setlinewidth
solid
0 0 0 edgecolor
newpath 2697.24 243.04 moveto
2693.07 233.3 lineto
2690.26 243.52 lineto
closepath stroke
grestore
% N48
gsave
1 setlinewidth
0 0 0 nodecolor
2686.29 385.83 27 18 ellipse_path stroke
0 0 0 nodecolor
14 /Times-Roman set_font
2674.79 382.13 moveto 23 (=int) alignedtext
grestore
% N48->N44
gsave
1 setlinewidth
0 0 0 edgecolor
newpath 2701.72 370.73 moveto
2715.6 358.05 2736.36 339.07 2753.33 323.56 curveto
stroke
0 0 0 edgecolor
newpath 2755.8 326.04 moveto
2760.82 316.71 lineto
2751.08 320.87 lineto
closepath fill
1 setlinewidth
solid
0 0 0 edgecolor
newpath 2755.8 326.04 moveto
2760.82 316.71 lineto
2751.08 320.87 lineto
closepath stroke
grestore
% N48->N47
gsave
1 setlinewidth
0 0 0 edgecolor
newpath 2688.46 367.5 moveto
2690.01 355.16 2692.12 338.34 2693.89 324.23 curveto
stroke
0 0 0 edgecolor
newpath 2697.39 324.45 moveto
2695.16 314.09 lineto
2690.44 323.58 lineto
closepath fill
1 setlinewidth
solid
0 0 0 edgecolor
newpath 2697.39 324.45 moveto
2695.16 314.09 lineto
2690.44 323.58 lineto
closepath stroke
grestore
% N49
gsave
1 setlinewidth
0 0 0 nodecolor
2587.29 116.61 28.07 26.74 ellipse_path stroke
0 0 0 nodecolor
14 /Times-Roman set_font
2583.79 120.41 moveto 7 (x) alignedtext
0 0 0 nodecolor
14 /Times-Roman set_font
2575.29 105.41 moveto 24 (\(int\)) alignedtext
grestore
% N50
gsave
1 setlinewidth
0 0 0 nodecolor
2490.29 116.61 50.82 26.74 ellipse_path stroke
0 0 0 nodecolor
14 /Times-Roman set_font
2486.79 120.41 moveto 7 (0) alignedtext
0 0 0 nodecolor
14 /Times-Roman set_font
2462.29 105.41 moveto 56 (\(int const\)) alignedtext
grestore
% N51
gsave
1 setlinewidth
0 0 0 nodecolor
2582.29 206.35 33.6 18 ellipse_path stroke
0 0 0 nodecolor
14 /Times-Roman set_font
2564.29 202.65 moveto 36 (<i\(int\)) alignedtext
grestore
% N51->N49
gsave
1 setlinewidth
0 0 0 edgecolor
newpath 2583.28 188.02 moveto
2583.84 178.2 2584.56 165.56 2585.24 153.69 curveto
stroke
0 0 0 edgecolor
newpath 2588.74 153.75 moveto
2585.81 143.56 lineto
2581.75 153.35 lineto
closepath fill
1 setlinewidth
solid
0 0 0 edgecolor
newpath 2588.74 153.75 moveto
2585.81 143.56 lineto
2581.75 153.35 lineto
closepath stroke
grestore
% N51->N50
gsave
1 setlinewidth
0 0 0 edgecolor
newpath 2566.27 190.07 moveto
2554.08 178.44 2536.92 162.08 2521.99 147.84 curveto
stroke
0 0 0 edgecolor
newpath 2524.08 145 moveto
2514.43 140.63 lineto
2519.25 150.06 lineto
closepath fill
1 setlinewidth
solid
0 0 0 edgecolor
newpath 2524.08 145 moveto
2514.43 140.63 lineto
2519.25 150.06 lineto
closepath stroke
grestore
% N52
gsave
1 setlinewidth
0 0 0 nodecolor
1262.29 1104.79 28.07 26.74 ellipse_path stroke
0 0 0 nodecolor
14 /Times-Roman set_font
1258.79 1108.59 moveto 7 (y) alignedtext
0 0 0 nodecolor
14 /Times-Roman set_font
1250.29 1093.59 moveto 24 (\(int\)) alignedtext
grestore
% N53
gsave
1 setlinewidth
0 0 0 nodecolor
1359.29 1104.79 50.82 26.74 ellipse_path stroke
0 0 0 nodecolor
14 /Times-Roman set_font
1355.79 1108.59 moveto 7 (0) alignedtext
0 0 0 nodecolor
14 /Times-Roman set_font
1331.29 1093.59 moveto 56 (\(int const\)) alignedtext
grestore
% N54
gsave
1 setlinewidth
0 0 0 nodecolor
1264.29 1194.53 33.6 18 ellipse_path stroke
0 0 0 nodecolor
14 /Times-Roman set_font
1246.29 1190.83 moveto 36 (<i\(int\)) alignedtext
grestore
% N54->N52
gsave
1 setlinewidth
0 0 0 edgecolor
newpath 1263.9 1176.2 moveto
1263.67 1166.39 1263.38 1153.74 1263.11 1141.87 curveto
stroke
0 0 0 edgecolor
newpath 1266.61 1141.66 moveto
1262.88 1131.74 lineto
1259.61 1141.82 lineto
closepath fill
1 setlinewidth
solid
0 0 0 edgecolor
newpath 1266.61 1141.66 moveto
1262.88 1131.74 lineto
1259.61 1141.82 lineto
closepath stroke
grestore
% N54->N53
gsave
1 setlinewidth
0 0 0 edgecolor
newpath 1280.41 1178.65 moveto
1293.14 1166.88 1311.33 1150.08 1327.04 1135.58 curveto
stroke
0 0 0 edgecolor
newpath 1329.54 1138.03 moveto
1334.51 1128.68 lineto
1324.79 1132.89 lineto
closepath fill
1 setlinewidth
solid
0 0 0 edgecolor
newpath 1329.54 1138.03 moveto
1334.51 1128.68 lineto
1324.79 1132.89 lineto
closepath stroke
grestore
% N55
gsave
1 setlinewidth
0 0 0 nodecolor
2582.29 296.09 63.89 18 ellipse_path stroke
0 0 0 nodecolor
14 /Times-Roman set_font
2541.29 292.39 moveto 82 (||\(int \(normal\)\)) alignedtext
grestore
% N55->N51
gsave
1 setlinewidth
0 0 0 edgecolor
newpath 2582.29 277.76 moveto
2582.29 265.42 2582.29 248.6 2582.29 234.49 curveto
stroke
0 0 0 edgecolor
newpath 2585.79 234.35 moveto
2582.29 224.35 lineto
2578.79 234.35 lineto
closepath fill
1 setlinewidth
solid
0 0 0 edgecolor
newpath 2585.79 234.35 moveto
2582.29 224.35 lineto
2578.79 234.35 lineto
closepath stroke
grestore
% N56
gsave
1 setlinewidth
0 0 0 nodecolor
1386.29 1194.53 27 18 ellipse_path stroke
0 0 0 nodecolor
14 /Times-Roman set_font
1383.79 1190.83 moveto 5 (-) alignedtext
grestore
% N57
gsave
1 setlinewidth
0 0 0 nodecolor
2355.29 116.61 50.82 26.74 ellipse_path stroke
0 0 0 nodecolor
14 /Times-Roman set_font
2351.79 120.41 moveto 7 (1) alignedtext
0 0 0 nodecolor
14 /Times-Roman set_font
2327.29 105.41 moveto 56 (\(int const\)) alignedtext
grestore
% N58
gsave
1 setlinewidth
0 0 0 nodecolor
2325.29 206.35 72.59 18 ellipse_path stroke
0 0 0 nodecolor
14 /Times-Roman set_font
2277.29 202.65 moveto 96 (unary_expression) alignedtext
grestore
% N58->N57
gsave
1 setlinewidth
0 0 0 edgecolor
newpath 2331.22 188.02 moveto
2334.67 177.93 2339.14 164.84 2343.3 152.69 curveto
stroke
0 0 0 edgecolor
newpath 2346.61 153.82 moveto
2346.53 143.22 lineto
2339.99 151.55 lineto
closepath fill
1 setlinewidth
solid
0 0 0 edgecolor
newpath 2346.61 153.82 moveto
2346.53 143.22 lineto
2339.99 151.55 lineto
closepath stroke
grestore
% N59
gsave
1 setlinewidth
0 0 0 nodecolor
2245.29 116.61 40.89 18 ellipse_path stroke
0 0 0 nodecolor
14 /Times-Roman set_font
2221.79 112.91 moveto 47 (N56\(int\)) alignedtext
grestore
% N58->N59
gsave
1 setlinewidth
0 0 0 edgecolor
newpath 2309.87 188.43 moveto
2297.68 175.07 2280.54 156.26 2266.97 141.39 curveto
stroke
0 0 0 edgecolor
newpath 2269.18 138.62 moveto
2259.86 133.59 lineto
2264.01 143.34 lineto
closepath fill
1 setlinewidth
solid
0 0 0 edgecolor
newpath 2269.18 138.62 moveto
2259.86 133.59 lineto
2264.01 143.34 lineto
closepath stroke
grestore
% N60
gsave
1 setlinewidth
0 0 0 nodecolor
2433.29 296.09 67.69 18 ellipse_path stroke
0 0 0 nodecolor
14 /Times-Roman set_font
2389.29 292.39 moveto 88 (jump_statement) alignedtext
grestore
% N60->N58
gsave
1 setlinewidth
0 0 0 edgecolor
newpath 2413.23 278.79 moveto
2396.44 265.15 2372.28 245.53 2353.54 230.3 curveto
stroke
0 0 0 edgecolor
newpath 2355.58 227.45 moveto
2345.61 223.86 lineto
2351.17 232.88 lineto
closepath fill
1 setlinewidth
solid
0 0 0 edgecolor
newpath 2355.58 227.45 moveto
2345.61 223.86 lineto
2351.17 232.88 lineto
closepath stroke
grestore
% N61
gsave
1 setlinewidth
0 0 0 nodecolor
2448.29 206.35 31.7 18 ellipse_path stroke
0 0 0 nodecolor
14 /Times-Roman set_font
2431.79 202.65 moveto 33 (return) alignedtext
grestore
% N60->N61
gsave
1 setlinewidth
0 0 0 edgecolor
newpath 2436.25 277.76 moveto
2438.36 265.42 2441.24 248.6 2443.65 234.49 curveto
stroke
0 0 0 edgecolor
newpath 2447.15 234.8 moveto
2445.39 224.35 lineto
2440.25 233.62 lineto
closepath fill
1 setlinewidth
solid
0 0 0 edgecolor
newpath 2447.15 234.8 moveto
2445.39 224.35 lineto
2440.25 233.62 lineto
closepath stroke
grestore
% N62
gsave
1 setlinewidth
0 0 0 nodecolor
2444.29 385.83 27 18 ellipse_path stroke
0 0 0 nodecolor
14 /Times-Roman set_font
2437.79 382.13 moveto 13 (IF) alignedtext
grestore
% N62->N55
gsave
1 setlinewidth
0 0 0 edgecolor
newpath 2463.19 372.81 moveto
2485.21 358.82 2522 335.43 2548.87 318.34 curveto
stroke
0 0 0 edgecolor
newpath 2551.01 321.13 moveto
2557.57 312.81 lineto
2547.25 315.22 lineto
closepath fill
1 setlinewidth
solid
0 0 0 edgecolor
newpath 2551.01 321.13 moveto
2557.57 312.81 lineto
2547.25 315.22 lineto
closepath stroke
grestore
% N62->N60
gsave
1 setlinewidth
0 0 0 edgecolor
newpath 2442.12 367.5 moveto
2440.57 355.16 2438.46 338.34 2436.69 324.23 curveto
stroke
0 0 0 edgecolor
newpath 2440.14 323.58 moveto
2435.42 314.09 lineto
2433.19 324.45 lineto
closepath fill
1 setlinewidth
solid
0 0 0 edgecolor
newpath 2440.14 323.58 moveto
2435.42 314.09 lineto
2433.19 324.45 lineto
closepath stroke
grestore
% N63
gsave
1 setlinewidth
0 0 0 nodecolor
2444.29 475.57 65.79 18 ellipse_path stroke
0 0 0 nodecolor
14 /Times-Roman set_font
2401.79 471.87 moveto 85 (block_item_list) alignedtext
grestore
% N63->N48
gsave
1 setlinewidth
0 0 0 edgecolor
newpath 2482.37 460.76 moveto
2529.52 443.67 2609.03 414.84 2653.56 398.7 curveto
stroke
0 0 0 edgecolor
newpath 2654.83 401.96 moveto
2663.03 395.26 lineto
2652.44 395.38 lineto
closepath fill
1 setlinewidth
solid
0 0 0 edgecolor
newpath 2654.83 401.96 moveto
2663.03 395.26 lineto
2652.44 395.38 lineto
closepath stroke
grestore
% N63->N62
gsave
1 setlinewidth
0 0 0 edgecolor
newpath 2444.29 457.24 moveto
2444.29 444.9 2444.29 428.08 2444.29 413.97 curveto
stroke
0 0 0 edgecolor
newpath 2447.79 413.83 moveto
2444.29 403.83 lineto
2440.79 413.83 lineto
closepath fill
1 setlinewidth
solid
0 0 0 edgecolor
newpath 2447.79 413.83 moveto
2444.29 403.83 lineto
2440.79 413.83 lineto
closepath stroke
grestore
% N64
gsave
1 setlinewidth
0 0 0 nodecolor
2319.29 296.09 28.07 26.74 ellipse_path stroke
0 0 0 nodecolor
14 /Times-Roman set_font
2315.79 299.89 moveto 7 (x) alignedtext
0 0 0 nodecolor
14 /Times-Roman set_font
2307.29 284.89 moveto 24 (\(int\)) alignedtext
grestore
% N65
gsave
1 setlinewidth
0 0 0 nodecolor
2222.29 296.09 50.82 26.74 ellipse_path stroke
0 0 0 nodecolor
14 /Times-Roman set_font
2218.79 299.89 moveto 7 (0) alignedtext
0 0 0 nodecolor
14 /Times-Roman set_font
2194.29 284.89 moveto 56 (\(int const\)) alignedtext
grestore
% N66
gsave
1 setlinewidth
0 0 0 nodecolor
2238.29 385.83 38.99 18 ellipse_path stroke
0 0 0 nodecolor
14 /Times-Roman set_font
2216.29 382.13 moveto 44 (==i\(int\)) alignedtext
grestore
% N66->N64
gsave
1 setlinewidth
0 0 0 edgecolor
newpath 2253.15 368.74 moveto
2264.55 356.38 2280.57 339.03 2293.99 324.5 curveto
stroke
0 0 0 edgecolor
newpath 2296.91 326.49 moveto
2301.13 316.77 lineto
2291.77 321.74 lineto
closepath fill
1 setlinewidth
solid
0 0 0 edgecolor
newpath 2296.91 326.49 moveto
2301.13 316.77 lineto
2291.77 321.74 lineto
closepath stroke
grestore
% N66->N65
gsave
1 setlinewidth
0 0 0 edgecolor
newpath 2235.13 367.5 moveto
2233.34 357.68 2231.03 345.04 2228.87 333.17 curveto
stroke
0 0 0 edgecolor
newpath 2232.26 332.25 moveto
2227.02 323.04 lineto
2225.37 333.51 lineto
closepath fill
1 setlinewidth
solid
0 0 0 edgecolor
newpath 2232.26 332.25 moveto
2227.02 323.04 lineto
2225.37 333.51 lineto
closepath stroke
grestore
% N67
gsave
1 setlinewidth
0 0 0 nodecolor
2070.29 206.35 28.07 26.74 ellipse_path stroke
0 0 0 nodecolor
14 /Times-Roman set_font
2066.79 210.15 moveto 7 (y) alignedtext
0 0 0 nodecolor
14 /Times-Roman set_font
2058.29 195.15 moveto 24 (\(int\)) alignedtext
grestore
% N68
gsave
1 setlinewidth
0 0 0 nodecolor
2167.29 206.35 50.82 26.74 ellipse_path stroke
0 0 0 nodecolor
14 /Times-Roman set_font
2163.79 210.15 moveto 7 (1) alignedtext
0 0 0 nodecolor
14 /Times-Roman set_font
2139.29 195.15 moveto 56 (\(int const\)) alignedtext
grestore
% N69
gsave
1 setlinewidth
0 0 0 nodecolor
2119.29 296.09 33.6 18 ellipse_path stroke
0 0 0 nodecolor
14 /Times-Roman set_font
2101.29 292.39 moveto 36 (+i\(int\)) alignedtext
grestore
% N69->N67
gsave
1 setlinewidth
0 0 0 edgecolor
newpath 2110.07 278.59 moveto
2103.9 267.54 2095.58 252.63 2088.14 239.3 curveto
stroke
0 0 0 edgecolor
newpath 2091.1 237.43 moveto
2083.16 230.4 lineto
2084.98 240.84 lineto
closepath fill
1 setlinewidth
solid
0 0 0 edgecolor
newpath 2091.1 237.43 moveto
2083.16 230.4 lineto
2084.98 240.84 lineto
closepath stroke
grestore
% N69->N68
gsave
1 setlinewidth
0 0 0 edgecolor
newpath 2128.32 278.59 moveto
2134.05 268.12 2141.66 254.2 2148.64 241.43 curveto
stroke
0 0 0 edgecolor
newpath 2151.85 242.87 moveto
2153.58 232.41 lineto
2145.71 239.51 lineto
closepath fill
1 setlinewidth
solid
0 0 0 edgecolor
newpath 2151.85 242.87 moveto
2153.58 232.41 lineto
2145.71 239.51 lineto
closepath stroke
grestore
% N70
gsave
1 setlinewidth
0 0 0 nodecolor
2113.29 385.83 67.69 18 ellipse_path stroke
0 0 0 nodecolor
14 /Times-Roman set_font
2069.29 382.13 moveto 88 (jump_statement) alignedtext
grestore
% N70->N69
gsave
1 setlinewidth
0 0 0 edgecolor
newpath 2114.48 367.5 moveto
2115.32 355.16 2116.47 338.34 2117.44 324.23 curveto
stroke
0 0 0 edgecolor
newpath 2120.94 324.31 moveto
2118.13 314.09 lineto
2113.95 323.83 lineto
closepath fill
1 setlinewidth
solid
0 0 0 edgecolor
newpath 2120.94 324.31 moveto
2118.13 314.09 lineto
2113.95 323.83 lineto
closepath stroke
grestore
% N71
gsave
1 setlinewidth
0 0 0 nodecolor
2035.29 296.09 31.7 18 ellipse_path stroke
0 0 0 nodecolor
14 /Times-Roman set_font
2018.79 292.39 moveto 33 (return) alignedtext
grestore
% N70->N71
gsave
1 setlinewidth
0 0 0 edgecolor
newpath 2098.25 367.91 moveto
2086.22 354.38 2069.23 335.27 2055.93 320.31 curveto
stroke
0 0 0 edgecolor
newpath 2058.24 317.63 moveto
2048.98 312.49 lineto
2053.01 322.29 lineto
closepath fill
1 setlinewidth
solid
0 0 0 edgecolor
newpath 2058.24 317.63 moveto
2048.98 312.49 lineto
2053.01 322.29 lineto
closepath stroke
grestore
% N72
gsave
1 setlinewidth
0 0 0 nodecolor
2176.29 475.57 27 18 ellipse_path stroke
0 0 0 nodecolor
14 /Times-Roman set_font
2169.79 471.87 moveto 13 (IF) alignedtext
grestore
% N72->N66
gsave
1 setlinewidth
0 0 0 edgecolor
newpath 2187.38 458.88 moveto
2196.63 445.78 2210 426.86 2220.72 411.7 curveto
stroke
0 0 0 edgecolor
newpath 2223.76 413.46 moveto
2226.67 403.27 lineto
2218.04 409.42 lineto
closepath fill
1 setlinewidth
solid
0 0 0 edgecolor
newpath 2223.76 413.46 moveto
2226.67 403.27 lineto
2218.04 409.42 lineto
closepath stroke
grestore
% N72->N70
gsave
1 setlinewidth
0 0 0 edgecolor
newpath 2165.03 458.88 moveto
2155.68 445.86 2142.21 427.1 2131.35 411.98 curveto
stroke
0 0 0 edgecolor
newpath 2133.99 409.66 moveto
2125.32 403.58 lineto
2128.3 413.74 lineto
closepath fill
1 setlinewidth
solid
0 0 0 edgecolor
newpath 2133.99 409.66 moveto
2125.32 403.58 lineto
2128.3 413.74 lineto
closepath stroke
grestore
% N73
gsave
1 setlinewidth
0 0 0 nodecolor
2176.29 556.44 65.79 18 ellipse_path stroke
0 0 0 nodecolor
14 /Times-Roman set_font
2133.79 552.74 moveto 85 (block_item_list) alignedtext
grestore
% N73->N63
gsave
1 setlinewidth
0 0 0 edgecolor
newpath 2219.35 542.77 moveto
2266.24 528.97 2341.25 506.9 2391.61 492.07 curveto
stroke
0 0 0 edgecolor
newpath 2392.73 495.39 moveto
2401.34 489.21 lineto
2390.76 488.68 lineto
closepath fill
1 setlinewidth
solid
0 0 0 edgecolor
newpath 2392.73 495.39 moveto
2401.34 489.21 lineto
2390.76 488.68 lineto
closepath stroke
grestore
% N73->N72
gsave
1 setlinewidth
0 0 0 edgecolor
newpath 2176.29 538.33 moveto
2176.29 528.3 2176.29 515.41 2176.29 504 curveto
stroke
0 0 0 edgecolor
newpath 2179.79 503.65 moveto
2176.29 493.65 lineto
2172.79 503.65 lineto
closepath fill
1 setlinewidth
solid
0 0 0 edgecolor
newpath 2179.79 503.65 moveto
2176.29 493.65 lineto
2172.79 503.65 lineto
closepath stroke
grestore
% N74
gsave
1 setlinewidth
0 0 0 nodecolor
1710.29 385.83 28.07 26.74 ellipse_path stroke
0 0 0 nodecolor
14 /Times-Roman set_font
1706.79 389.63 moveto 7 (y) alignedtext
0 0 0 nodecolor
14 /Times-Roman set_font
1698.29 374.63 moveto 24 (\(int\)) alignedtext
grestore
% N75
gsave
1 setlinewidth
0 0 0 nodecolor
1613.29 385.83 50.82 26.74 ellipse_path stroke
0 0 0 nodecolor
14 /Times-Roman set_font
1609.79 389.63 moveto 7 (0) alignedtext
0 0 0 nodecolor
14 /Times-Roman set_font
1585.29 374.63 moveto 56 (\(int const\)) alignedtext
grestore
% N76
gsave
1 setlinewidth
0 0 0 nodecolor
1700.29 475.57 38.99 18 ellipse_path stroke
0 0 0 nodecolor
14 /Times-Roman set_font
1678.29 471.87 moveto 44 (==i\(int\)) alignedtext
grestore
% N76->N74
gsave
1 setlinewidth
0 0 0 edgecolor
newpath 1702.27 457.24 moveto
1703.39 447.42 1704.83 434.78 1706.18 422.91 curveto
stroke
0 0 0 edgecolor
newpath 1709.68 423.11 moveto
1707.33 412.78 lineto
1702.72 422.32 lineto
closepath fill
1 setlinewidth
solid
0 0 0 edgecolor
newpath 1709.68 423.11 moveto
1707.33 412.78 lineto
1702.72 422.32 lineto
closepath stroke
grestore
% N76->N75
gsave
1 setlinewidth
0 0 0 edgecolor
newpath 1684.74 458.88 moveto
1673.25 447.3 1657.25 431.17 1643.31 417.1 curveto
stroke
0 0 0 edgecolor
newpath 1645.76 414.61 moveto
1636.24 409.97 lineto
1640.79 419.54 lineto
closepath fill
1 setlinewidth
solid
0 0 0 edgecolor
newpath 1645.76 414.61 moveto
1636.24 409.97 lineto
1640.79 419.54 lineto
closepath stroke
grestore
% N77
gsave
1 setlinewidth
0 0 0 nodecolor
1748.29 26.87 81.13 26.74 ellipse_path stroke
0 0 0 nodecolor
14 /Times-Roman set_font
1717.79 30.67 moveto 61 (ackermann) alignedtext
0 0 0 nodecolor
14 /Times-Roman set_font
1698.79 15.67 moveto 99 (\(\('int', ['int', 'int']\)\)) alignedtext
grestore
% N78
gsave
1 setlinewidth
0 0 0 nodecolor
1466.29 1104.79 28.07 26.74 ellipse_path stroke
0 0 0 nodecolor
14 /Times-Roman set_font
1462.79 1108.59 moveto 7 (x) alignedtext
0 0 0 nodecolor
14 /Times-Roman set_font
1454.29 1093.59 moveto 24 (\(int\)) alignedtext
grestore
% N79
gsave
1 setlinewidth
0 0 0 nodecolor
1563.29 1104.79 50.82 26.74 ellipse_path stroke
0 0 0 nodecolor
14 /Times-Roman set_font
1559.79 1108.59 moveto 7 (1) alignedtext
0 0 0 nodecolor
14 /Times-Roman set_font
1535.29 1093.59 moveto 56 (\(int const\)) alignedtext
grestore
% N80
gsave
1 setlinewidth
0 0 0 nodecolor
1483.29 1194.53 31.4 18 ellipse_path stroke
0 0 0 nodecolor
14 /Times-Roman set_font
1467.29 1190.83 moveto 32 (-i\(int\)) alignedtext
grestore
% N80->N78
gsave
1 setlinewidth
0 0 0 edgecolor
newpath 1480.01 1176.61 moveto
1478.07 1166.58 1475.53 1153.47 1473.16 1141.26 curveto
stroke
0 0 0 edgecolor
newpath 1476.57 1140.45 moveto
1471.23 1131.3 lineto
1469.7 1141.78 lineto
closepath fill
1 setlinewidth
solid
0 0 0 edgecolor
newpath 1476.57 1140.45 moveto
1471.23 1131.3 lineto
1469.7 1141.78 lineto
closepath stroke
grestore
% N80->N79
gsave
1 setlinewidth
0 0 0 edgecolor
newpath 1497.23 1178.25 moveto
1507.58 1166.9 1522.05 1151.02 1534.81 1137.03 curveto
stroke
0 0 0 edgecolor
newpath 1537.54 1139.23 moveto
1541.69 1129.48 lineto
1532.36 1134.52 lineto
closepath fill
1 setlinewidth
solid
0 0 0 edgecolor
newpath 1537.54 1139.23 moveto
1541.69 1129.48 lineto
1532.36 1134.52 lineto
closepath stroke
grestore
% N81
gsave
1 setlinewidth
0 0 0 nodecolor
1594.29 1194.53 50.82 26.74 ellipse_path stroke
0 0 0 nodecolor
14 /Times-Roman set_font
1590.79 1198.33 moveto 7 (1) alignedtext
0 0 0 nodecolor
14 /Times-Roman set_font
1566.29 1183.33 moveto 56 (\(int const\)) alignedtext
grestore
% N82
gsave
1 setlinewidth
0 0 0 nodecolor
1811.29 116.61 84.29 26.74 ellipse_path stroke
0 0 0 nodecolor
14 /Times-Roman set_font
1759.79 120.41 moveto 103 (postfix_expression) alignedtext
0 0 0 nodecolor
14 /Times-Roman set_font
1773.29 105.41 moveto 76 (\( FUNC call \)) alignedtext
grestore
% N82->N77
gsave
1 setlinewidth
0 0 0 edgecolor
newpath 1793.07 90.23 moveto
1786.6 81.23 1779.23 70.95 1772.35 61.38 curveto
stroke
0 0 0 edgecolor
newpath 1775.15 59.27 moveto
1766.47 53.19 lineto
1769.46 63.36 lineto
closepath fill
1 setlinewidth
solid
0 0 0 edgecolor
newpath 1775.15 59.27 moveto
1766.47 53.19 lineto
1769.46 63.36 lineto
closepath stroke
grestore
% N83
gsave
1 setlinewidth
0 0 0 nodecolor
1874.29 26.87 27 18 ellipse_path stroke
0 0 0 nodecolor
14 /Times-Roman set_font
1862.29 23.17 moveto 24 (N80) alignedtext
grestore
% N82->N83
gsave
1 setlinewidth
0 0 0 edgecolor
newpath 1829.51 90.23 moveto
1838.23 78.1 1848.6 63.65 1857.17 51.72 curveto
stroke
0 0 0 edgecolor
newpath 1860.05 53.71 moveto
1863.04 43.54 lineto
1854.36 49.62 lineto
closepath fill
1 setlinewidth
solid
0 0 0 edgecolor
newpath 1860.05 53.71 moveto
1863.04 43.54 lineto
1854.36 49.62 lineto
closepath stroke
grestore
% N84
gsave
1 setlinewidth
0 0 0 nodecolor
1746.29 206.35 27 18 ellipse_path stroke
0 0 0 nodecolor
14 /Times-Roman set_font
1741.79 202.65 moveto 9 (=) alignedtext
grestore
% N84->N82
gsave
1 setlinewidth
0 0 0 edgecolor
newpath 1757.91 189.66 moveto
1765.76 179.07 1776.43 164.67 1786.16 151.53 curveto
stroke
0 0 0 edgecolor
newpath 1789.24 153.25 moveto
1792.38 143.13 lineto
1783.62 149.09 lineto
closepath fill
1 setlinewidth
solid
0 0 0 edgecolor
newpath 1789.24 153.25 moveto
1792.38 143.13 lineto
1783.62 149.09 lineto
closepath stroke
grestore
% temp
gsave
1 setlinewidth
0 0 0 nodecolor
1680.29 116.61 28.7 18 ellipse_path stroke
0 0 0 nodecolor
14 /Times-Roman set_font
1666.29 112.91 moveto 28 (temp) alignedtext
grestore
% N84->temp
gsave
1 setlinewidth
0 0 0 edgecolor
newpath 1734.49 189.66 moveto
1724.36 176.19 1709.59 156.56 1698.03 141.19 curveto
stroke
0 0 0 edgecolor
newpath 1700.8 139.05 moveto
1691.99 133.16 lineto
1695.2 143.26 lineto
closepath fill
1 setlinewidth
solid
0 0 0 edgecolor
newpath 1700.8 139.05 moveto
1691.99 133.16 lineto
1695.2 143.26 lineto
closepath stroke
grestore
% N85
gsave
1 setlinewidth
0 0 0 nodecolor
1746.29 296.09 77.19 18 ellipse_path stroke
0 0 0 nodecolor
14 /Times-Roman set_font
1694.79 292.39 moveto 103 (init_declarator_list) alignedtext
grestore
% N85->N84
gsave
1 setlinewidth
0 0 0 edgecolor
newpath 1746.29 277.76 moveto
1746.29 265.42 1746.29 248.6 1746.29 234.49 curveto
stroke
0 0 0 edgecolor
newpath 1749.79 234.35 moveto
1746.29 224.35 lineto
1742.79 234.35 lineto
closepath fill
1 setlinewidth
solid
0 0 0 edgecolor
newpath 1749.79 234.35 moveto
1746.29 224.35 lineto
1742.79 234.35 lineto
closepath stroke
grestore
% N86
gsave
1 setlinewidth
0 0 0 nodecolor
1812.29 385.83 55.79 18 ellipse_path stroke
0 0 0 nodecolor
14 /Times-Roman set_font
1777.29 382.13 moveto 70 (decl_body_2) alignedtext
grestore
% N86->int
gsave
1 setlinewidth
0 0 0 edgecolor
newpath 1781.8 370.6 moveto
1771.11 366.17 1758.87 361.73 1747.29 358.96 curveto
1576.28 318.03 1527.91 343.61 1353.29 322.96 curveto
1303.9 317.12 1247.06 308.53 1211.17 302.88 curveto
stroke
0 0 0 edgecolor
newpath 1211.6 299.4 moveto
1201.18 301.29 lineto
1210.5 306.32 lineto
closepath fill
1 setlinewidth
solid
0 0 0 edgecolor
newpath 1211.6 299.4 moveto
1201.18 301.29 lineto
1210.5 306.32 lineto
closepath stroke
grestore
% N86->N85
gsave
1 setlinewidth
0 0 0 edgecolor
newpath 1799.57 367.91 moveto
1789.8 354.93 1776.16 336.79 1765.12 322.13 curveto
stroke
0 0 0 edgecolor
newpath 1767.79 319.84 moveto
1758.98 313.96 lineto
1762.19 324.05 lineto
closepath fill
1 setlinewidth
solid
0 0 0 edgecolor
newpath 1767.79 319.84 moveto
1758.98 313.96 lineto
1762.19 324.05 lineto
closepath stroke
grestore
% N87
gsave
1 setlinewidth
0 0 0 nodecolor
1872.29 296.09 31.23 26.74 ellipse_path stroke
0 0 0 nodecolor
14 /Times-Roman set_font
1858.29 299.89 moveto 28 (temp) alignedtext
0 0 0 nodecolor
14 /Times-Roman set_font
1860.29 284.89 moveto 24 (\(int\)) alignedtext
grestore
% N88
gsave
1 setlinewidth
0 0 0 nodecolor
1953.29 385.83 67.69 18 ellipse_path stroke
0 0 0 nodecolor
14 /Times-Roman set_font
1909.29 382.13 moveto 88 (jump_statement) alignedtext
grestore
% N88->N87
gsave
1 setlinewidth
0 0 0 edgecolor
newpath 1937.67 367.91 moveto
1926.5 355.81 1911.21 339.24 1898.22 325.18 curveto
stroke
0 0 0 edgecolor
newpath 1900.64 322.64 moveto
1891.28 317.66 lineto
1895.49 327.38 lineto
closepath fill
1 setlinewidth
solid
0 0 0 edgecolor
newpath 1900.64 322.64 moveto
1891.28 317.66 lineto
1895.49 327.38 lineto
closepath stroke
grestore
% N89
gsave
1 setlinewidth
0 0 0 nodecolor
1953.29 296.09 31.7 18 ellipse_path stroke
0 0 0 nodecolor
14 /Times-Roman set_font
1936.79 292.39 moveto 33 (return) alignedtext
grestore
% N88->N89
gsave
1 setlinewidth
0 0 0 edgecolor
newpath 1953.29 367.5 moveto
1953.29 355.16 1953.29 338.34 1953.29 324.23 curveto
stroke
0 0 0 edgecolor
newpath 1956.79 324.09 moveto
1953.29 314.09 lineto
1949.79 324.09 lineto
closepath fill
1 setlinewidth
solid
0 0 0 edgecolor
newpath 1956.79 324.09 moveto
1953.29 314.09 lineto
1949.79 324.09 lineto
closepath stroke
grestore
% N90
gsave
1 setlinewidth
0 0 0 nodecolor
1823.29 475.57 65.79 18 ellipse_path stroke
0 0 0 nodecolor
14 /Times-Roman set_font
1780.79 471.87 moveto 85 (block_item_list) alignedtext
grestore
% N90->N86
gsave
1 setlinewidth
0 0 0 edgecolor
newpath 1821.12 457.24 moveto
1819.57 444.9 1817.46 428.08 1815.69 413.97 curveto
stroke
0 0 0 edgecolor
newpath 1819.14 413.32 moveto
1814.42 403.83 lineto
1812.19 414.19 lineto
closepath fill
1 setlinewidth
solid
0 0 0 edgecolor
newpath 1819.14 413.32 moveto
1814.42 403.83 lineto
1812.19 414.19 lineto
closepath stroke
grestore
% N90->N88
gsave
1 setlinewidth
0 0 0 edgecolor
newpath 1846.83 458.68 moveto
1867.6 444.67 1898.04 424.12 1921.06 408.58 curveto
stroke
0 0 0 edgecolor
newpath 1923.15 411.39 moveto
1929.49 402.9 lineto
1919.24 405.59 lineto
closepath fill
1 setlinewidth
solid
0 0 0 edgecolor
newpath 1923.15 411.39 moveto
1929.49 402.9 lineto
1919.24 405.59 lineto
closepath stroke
grestore
% N91
gsave
1 setlinewidth
0 0 0 nodecolor
1761.29 556.44 27 18 ellipse_path stroke
0 0 0 nodecolor
14 /Times-Roman set_font
1754.79 552.74 moveto 13 (IF) alignedtext
grestore
% N91->N76
gsave
1 setlinewidth
0 0 0 edgecolor
newpath 1749.53 540.23 moveto
1740.9 529.07 1728.99 513.68 1719.05 500.83 curveto
stroke
0 0 0 edgecolor
newpath 1721.74 498.59 moveto
1712.86 492.82 lineto
1716.21 502.87 lineto
closepath fill
1 setlinewidth
solid
0 0 0 edgecolor
newpath 1721.74 498.59 moveto
1712.86 492.82 lineto
1716.21 502.87 lineto
closepath stroke
grestore
% N91->N90
gsave
1 setlinewidth
0 0 0 edgecolor
newpath 1773.25 540.23 moveto
1781.91 529.22 1793.8 514.08 1803.82 501.34 curveto
stroke
0 0 0 edgecolor
newpath 1806.66 503.39 moveto
1810.09 493.37 lineto
1801.15 499.07 lineto
closepath fill
1 setlinewidth
solid
0 0 0 edgecolor
newpath 1806.66 503.39 moveto
1810.09 493.37 lineto
1801.15 499.07 lineto
closepath stroke
grestore
% N92
gsave
1 setlinewidth
0 0 0 nodecolor
1761.29 628.44 65.79 18 ellipse_path stroke
0 0 0 nodecolor
14 /Times-Roman set_font
1718.79 624.74 moveto 85 (block_item_list) alignedtext
grestore
% N92->N73
gsave
1 setlinewidth
0 0 0 edgecolor
newpath 1815.55 618.29 moveto
1891.82 605.42 2030.5 582.03 2111.9 568.3 curveto
stroke
0 0 0 edgecolor
newpath 2112.75 571.71 moveto
2122.02 566.59 lineto
2111.58 564.81 lineto
closepath fill
1 setlinewidth
solid
0 0 0 edgecolor
newpath 2112.75 571.71 moveto
2122.02 566.59 lineto
2111.58 564.81 lineto
closepath stroke
grestore
% N92->N91
gsave
1 setlinewidth
0 0 0 edgecolor
newpath 1761.29 610.14 moveto
1761.29 602.42 1761.29 593.15 1761.29 584.55 curveto
stroke
0 0 0 edgecolor
newpath 1764.79 584.54 moveto
1761.29 574.55 lineto
1757.79 584.55 lineto
closepath fill
1 setlinewidth
solid
0 0 0 edgecolor
newpath 1764.79 584.54 moveto
1761.29 574.55 lineto
1757.79 584.55 lineto
closepath stroke
grestore
% N93
gsave
1 setlinewidth
0 0 0 nodecolor
1515.29 296.09 81.13 26.74 ellipse_path stroke
0 0 0 nodecolor
14 /Times-Roman set_font
1484.79 299.89 moveto 61 (ackermann) alignedtext
0 0 0 nodecolor
14 /Times-Roman set_font
1465.79 284.89 moveto 99 (\(\('int', ['int', 'int']\)\)) alignedtext
grestore
% N94
gsave
1 setlinewidth
0 0 0 nodecolor
1696.29 1194.53 28.07 26.74 ellipse_path stroke
0 0 0 nodecolor
14 /Times-Roman set_font
1692.79 1198.33 moveto 7 (x) alignedtext
0 0 0 nodecolor
14 /Times-Roman set_font
1684.29 1183.33 moveto 24 (\(int\)) alignedtext
grestore
% N95
gsave
1 setlinewidth
0 0 0 nodecolor
1680.29 1104.79 28.07 26.74 ellipse_path stroke
0 0 0 nodecolor
14 /Times-Roman set_font
1676.79 1108.59 moveto 7 (y) alignedtext
0 0 0 nodecolor
14 /Times-Roman set_font
1668.29 1093.59 moveto 24 (\(int\)) alignedtext
grestore
% N96
gsave
1 setlinewidth
0 0 0 nodecolor
1777.29 1104.79 50.82 26.74 ellipse_path stroke
0 0 0 nodecolor
14 /Times-Roman set_font
1773.79 1108.59 moveto 7 (1) alignedtext
0 0 0 nodecolor
14 /Times-Roman set_font
1749.29 1093.59 moveto 56 (\(int const\)) alignedtext
grestore
% N97
gsave
1 setlinewidth
0 0 0 nodecolor
1776.29 1194.53 31.4 18 ellipse_path stroke
0 0 0 nodecolor
14 /Times-Roman set_font
1760.29 1190.83 moveto 32 (-i\(int\)) alignedtext
grestore
% N97->N95
gsave
1 setlinewidth
0 0 0 edgecolor
newpath 1760.01 1178.65 moveto
1745.72 1165.59 1724.64 1146.33 1707.75 1130.89 curveto
stroke
0 0 0 edgecolor
newpath 1710.07 1128.26 moveto
1700.32 1124.1 lineto
1705.35 1133.43 lineto
closepath fill
1 setlinewidth
solid
0 0 0 edgecolor
newpath 1710.07 1128.26 moveto
1700.32 1124.1 lineto
1705.35 1133.43 lineto
closepath stroke
grestore
% N97->N96
gsave
1 setlinewidth
0 0 0 edgecolor
newpath 1776.49 1176.2 moveto
1776.6 1166.39 1776.74 1153.74 1776.88 1141.87 curveto
stroke
0 0 0 edgecolor
newpath 1780.38 1141.78 moveto
1777 1131.74 lineto
1773.38 1141.7 lineto
closepath fill
1 setlinewidth
solid
0 0 0 edgecolor
newpath 1780.38 1141.78 moveto
1777 1131.74 lineto
1773.38 1141.7 lineto
closepath stroke
grestore
% N98
gsave
1 setlinewidth
0 0 0 nodecolor
1460.29 385.83 84.29 26.74 ellipse_path stroke
0 0 0 nodecolor
14 /Times-Roman set_font
1408.79 389.63 moveto 103 (postfix_expression) alignedtext
0 0 0 nodecolor
14 /Times-Roman set_font
1422.29 374.63 moveto 76 (\( FUNC call \)) alignedtext
grestore
% N98->N93
gsave
1 setlinewidth
0 0 0 edgecolor
newpath 1476.5 358.98 moveto
1481.97 350.25 1488.17 340.36 1493.98 331.09 curveto
stroke
0 0 0 edgecolor
newpath 1497.05 332.79 moveto
1499.39 322.45 lineto
1491.12 329.07 lineto
closepath fill
1 setlinewidth
solid
0 0 0 edgecolor
newpath 1497.05 332.79 moveto
1499.39 322.45 lineto
1491.12 329.07 lineto
closepath stroke
grestore
% N99
gsave
1 setlinewidth
0 0 0 nodecolor
1389.29 296.09 27 18 ellipse_path stroke
0 0 0 nodecolor
14 /Times-Roman set_font
1377.29 292.39 moveto 24 (N94) alignedtext
grestore
% N98->N99
gsave
1 setlinewidth
0 0 0 edgecolor
newpath 1439.76 359.45 moveto
1429.71 347.03 1417.7 332.2 1407.92 320.11 curveto
stroke
0 0 0 edgecolor
newpath 1410.56 317.82 moveto
1401.55 312.24 lineto
1405.12 322.22 lineto
closepath fill
1 setlinewidth
solid
0 0 0 edgecolor
newpath 1410.56 317.82 moveto
1401.55 312.24 lineto
1405.12 322.22 lineto
closepath stroke
grestore
% N100
gsave
1 setlinewidth
0 0 0 nodecolor
1309.29 475.57 27 18 ellipse_path stroke
0 0 0 nodecolor
14 /Times-Roman set_font
1304.79 471.87 moveto 9 (=) alignedtext
grestore
% N100->N98
gsave
1 setlinewidth
0 0 0 edgecolor
newpath 1329.03 463.1 moveto
1350.02 450.9 1384.01 431.16 1412.14 414.81 curveto
stroke
0 0 0 edgecolor
newpath 1414.15 417.69 moveto
1421.04 409.64 lineto
1410.64 411.64 lineto
closepath fill
1 setlinewidth
solid
0 0 0 edgecolor
newpath 1414.15 417.69 moveto
1421.04 409.64 lineto
1410.64 411.64 lineto
closepath stroke
grestore
% temp1
gsave
1 setlinewidth
0 0 0 nodecolor
1287.29 385.83 33.29 18 ellipse_path stroke
0 0 0 nodecolor
14 /Times-Roman set_font
1269.79 382.13 moveto 35 (temp1) alignedtext
grestore
% N100->temp1
gsave
1 setlinewidth
0 0 0 edgecolor
newpath 1305.05 457.65 moveto
1301.91 445.15 1297.58 427.88 1293.98 413.52 curveto
stroke
0 0 0 edgecolor
newpath 1297.35 412.54 moveto
1291.52 403.7 lineto
1290.56 414.25 lineto
closepath fill
1 setlinewidth
solid
0 0 0 edgecolor
newpath 1297.35 412.54 moveto
1291.52 403.7 lineto
1290.56 414.25 lineto
closepath stroke
grestore
% N101
gsave
1 setlinewidth
0 0 0 nodecolor
1309.29 556.44 77.19 18 ellipse_path stroke
0 0 0 nodecolor
14 /Times-Roman set_font
1257.79 552.74 moveto 103 (init_declarator_list) alignedtext
grestore
% N101->N100
gsave
1 setlinewidth
0 0 0 edgecolor
newpath 1309.29 538.33 moveto
1309.29 528.3 1309.29 515.41 1309.29 504 curveto
stroke
0 0 0 edgecolor
newpath 1312.79 503.65 moveto
1309.29 493.65 lineto
1305.79 503.65 lineto
closepath fill
1 setlinewidth
solid
0 0 0 edgecolor
newpath 1312.79 503.65 moveto
1309.29 493.65 lineto
1305.79 503.65 lineto
closepath stroke
grestore
% N102
gsave
1 setlinewidth
0 0 0 nodecolor
1309.29 628.44 55.79 18 ellipse_path stroke
0 0 0 nodecolor
14 /Times-Roman set_font
1274.29 624.74 moveto 70 (decl_body_2) alignedtext
grestore
% N102->int
gsave
1 setlinewidth
0 0 0 edgecolor
newpath 1274.43 614.27 moveto
1256.37 605.66 1235.58 592.6 1223.29 574.44 curveto
1219.77 569.23 1190.84 392.85 1179.67 324.12 curveto
stroke
0 0 0 edgecolor
newpath 1183.09 323.37 moveto
1178.04 314.06 lineto
1176.18 324.49 lineto
closepath fill
1 setlinewidth
solid
0 0 0 edgecolor
newpath 1183.09 323.37 moveto
1178.04 314.06 lineto
1176.18 324.49 lineto
closepath stroke
grestore
% N102->N101
gsave
1 setlinewidth
0 0 0 edgecolor
newpath 1309.29 610.14 moveto
1309.29 602.42 1309.29 593.15 1309.29 584.55 curveto
stroke
0 0 0 edgecolor
newpath 1312.79 584.54 moveto
1309.29 574.55 lineto
1305.79 584.55 lineto
closepath fill
1 setlinewidth
solid
0 0 0 edgecolor
newpath 1312.79 584.54 moveto
1309.29 574.55 lineto
1305.79 584.55 lineto
closepath stroke
grestore
% N103
gsave
1 setlinewidth
0 0 0 nodecolor
1570.29 709.31 65.79 18 ellipse_path stroke
0 0 0 nodecolor
14 /Times-Roman set_font
1527.79 705.61 moveto 85 (block_item_list) alignedtext
grestore
% N103->N92
gsave
1 setlinewidth
0 0 0 edgecolor
newpath 1605.32 693.84 moveto
1636.69 680.89 1682.84 661.84 1716.81 647.81 curveto
stroke
0 0 0 edgecolor
newpath 1718.57 650.87 moveto
1726.48 643.81 lineto
1715.9 644.4 lineto
closepath fill
1 setlinewidth
solid
0 0 0 edgecolor
newpath 1718.57 650.87 moveto
1726.48 643.81 lineto
1715.9 644.4 lineto
closepath stroke
grestore
% N103->N102
gsave
1 setlinewidth
0 0 0 edgecolor
newpath 1527.78 695.46 moveto
1481.42 681.46 1407.35 659.07 1358.51 644.31 curveto
stroke
0 0 0 edgecolor
newpath 1359.38 640.92 moveto
1348.8 641.38 lineto
1357.36 647.62 lineto
closepath fill
1 setlinewidth
solid
0 0 0 edgecolor
newpath 1359.38 640.92 moveto
1348.8 641.38 lineto
1357.36 647.62 lineto
closepath stroke
grestore
% N104
gsave
1 setlinewidth
0 0 0 nodecolor
2892.29 385.83 81.13 26.74 ellipse_path stroke
0 0 0 nodecolor
14 /Times-Roman set_font
2861.79 389.63 moveto 61 (ackermann) alignedtext
0 0 0 nodecolor
14 /Times-Roman set_font
2842.79 374.63 moveto 99 (\(\('int', ['int', 'int']\)\)) alignedtext
grestore
% N105
gsave
1 setlinewidth
0 0 0 nodecolor
1874.29 1104.79 28.07 26.74 ellipse_path stroke
0 0 0 nodecolor
14 /Times-Roman set_font
1870.79 1108.59 moveto 7 (x) alignedtext
0 0 0 nodecolor
14 /Times-Roman set_font
1862.29 1093.59 moveto 24 (\(int\)) alignedtext
grestore
% N106
gsave
1 setlinewidth
0 0 0 nodecolor
1971.29 1104.79 50.82 26.74 ellipse_path stroke
0 0 0 nodecolor
14 /Times-Roman set_font
1967.79 1108.59 moveto 7 (1) alignedtext
0 0 0 nodecolor
14 /Times-Roman set_font
1943.29 1093.59 moveto 56 (\(int const\)) alignedtext
grestore
% N107
gsave
1 setlinewidth
0 0 0 nodecolor
1923.29 1194.53 31.4 18 ellipse_path stroke
0 0 0 nodecolor
14 /Times-Roman set_font
1907.29 1190.83 moveto 32 (-i\(int\)) alignedtext
grestore
% N107->N105
gsave
1 setlinewidth
0 0 0 edgecolor
newpath 1914.07 1177.03 moveto
1907.9 1165.98 1899.58 1151.07 1892.14 1137.74 curveto
stroke
0 0 0 edgecolor
newpath 1895.1 1135.87 moveto
1887.16 1128.84 lineto
1888.98 1139.28 lineto
closepath fill
1 setlinewidth
solid
0 0 0 edgecolor
newpath 1895.1 1135.87 moveto
1887.16 1128.84 lineto
1888.98 1139.28 lineto
closepath stroke
grestore
% N107->N106
gsave
1 setlinewidth
0 0 0 edgecolor
newpath 1932.32 1177.03 moveto
1938.05 1166.56 1945.66 1152.64 1952.64 1139.88 curveto
stroke
0 0 0 edgecolor
newpath 1955.85 1141.31 moveto
1957.58 1130.85 lineto
1949.71 1137.95 lineto
closepath fill
1 setlinewidth
solid
0 0 0 edgecolor
newpath 1955.85 1141.31 moveto
1957.58 1130.85 lineto
1949.71 1137.95 lineto
closepath stroke
grestore
% N108
gsave
1 setlinewidth
0 0 0 nodecolor
2008.29 1194.53 36.13 26.74 ellipse_path stroke
0 0 0 nodecolor
14 /Times-Roman set_font
1990.79 1198.33 moveto 35 (temp1) alignedtext
0 0 0 nodecolor
14 /Times-Roman set_font
1996.29 1183.33 moveto 24 (\(int\)) alignedtext
grestore
% N109
gsave
1 setlinewidth
0 0 0 nodecolor
2762.29 475.57 84.29 26.74 ellipse_path stroke
0 0 0 nodecolor
14 /Times-Roman set_font
2710.79 479.37 moveto 103 (postfix_expression) alignedtext
0 0 0 nodecolor
14 /Times-Roman set_font
2724.29 464.37 moveto 76 (\( FUNC call \)) alignedtext
grestore
% N109->N104
gsave
1 setlinewidth
0 0 0 edgecolor
newpath 2797.13 451.06 moveto
2813.01 440.34 2831.98 427.53 2848.79 416.19 curveto
stroke
0 0 0 edgecolor
newpath 2851.03 418.9 moveto
2857.36 410.41 lineto
2847.11 413.1 lineto
closepath fill
1 setlinewidth
solid
0 0 0 edgecolor
newpath 2851.03 418.9 moveto
2857.36 410.41 lineto
2847.11 413.1 lineto
closepath stroke
grestore
% N110
gsave
1 setlinewidth
0 0 0 nodecolor
2762.29 385.83 30.59 18 ellipse_path stroke
0 0 0 nodecolor
14 /Times-Roman set_font
2746.79 382.13 moveto 31 (N107) alignedtext
grestore
% N109->N110
gsave
1 setlinewidth
0 0 0 edgecolor
newpath 2762.29 448.25 moveto
2762.29 437.49 2762.29 425.06 2762.29 414.2 curveto
stroke
0 0 0 edgecolor
newpath 2765.79 413.99 moveto
2762.29 403.99 lineto
2758.79 413.99 lineto
closepath fill
1 setlinewidth
solid
0 0 0 edgecolor
newpath 2765.79 413.99 moveto
2762.29 403.99 lineto
2758.79 413.99 lineto
closepath stroke
grestore
% N111
gsave
1 setlinewidth
0 0 0 nodecolor
2605.29 556.44 27 18 ellipse_path stroke
0 0 0 nodecolor
14 /Times-Roman set_font
2600.79 552.74 moveto 9 (=) alignedtext
grestore
% N111->N109
gsave
1 setlinewidth
0 0 0 edgecolor
newpath 2626.14 544.97 moveto
2647.29 534.34 2680.88 517.47 2709.41 503.14 curveto
stroke
0 0 0 edgecolor
newpath 2711.1 506.2 moveto
2718.47 498.58 lineto
2707.96 499.95 lineto
closepath fill
1 setlinewidth
solid
0 0 0 edgecolor
newpath 2711.1 506.2 moveto
2718.47 498.58 lineto
2707.96 499.95 lineto
closepath stroke
grestore
% temp2
gsave
1 setlinewidth
0 0 0 nodecolor
2605.29 475.57 33.29 18 ellipse_path stroke
0 0 0 nodecolor
14 /Times-Roman set_font
2587.79 471.87 moveto 35 (temp2) alignedtext
grestore
% N111->temp2
gsave
1 setlinewidth
0 0 0 edgecolor
newpath 2605.29 538.33 moveto
2605.29 528.3 2605.29 515.41 2605.29 504 curveto
stroke
0 0 0 edgecolor
newpath 2608.79 503.65 moveto
2605.29 493.65 lineto
2601.79 503.65 lineto
closepath fill
1 setlinewidth
solid
0 0 0 edgecolor
newpath 2608.79 503.65 moveto
2605.29 493.65 lineto
2601.79 503.65 lineto
closepath stroke
grestore
% N112
gsave
1 setlinewidth
0 0 0 nodecolor
2261.29 628.44 77.19 18 ellipse_path stroke
0 0 0 nodecolor
14 /Times-Roman set_font
2209.79 624.74 moveto 103 (init_declarator_list) alignedtext
grestore
% N112->N111
gsave
1 setlinewidth
0 0 0 edgecolor
newpath 2317.71 615.96 moveto
2389.1 601.43 2509.92 576.85 2569.66 564.69 curveto
stroke
0 0 0 edgecolor
newpath 2570.64 568.06 moveto
2579.74 562.64 lineto
2569.24 561.21 lineto
closepath fill
1 setlinewidth
solid
0 0 0 edgecolor
newpath 2570.64 568.06 moveto
2579.74 562.64 lineto
2569.24 561.21 lineto
closepath stroke
grestore
% N113
gsave
1 setlinewidth
0 0 0 nodecolor
1710.29 709.31 55.79 18 ellipse_path stroke
0 0 0 nodecolor
14 /Times-Roman set_font
1675.29 705.61 moveto 70 (decl_body_2) alignedtext
grestore
% N113->int
gsave
1 setlinewidth
0 0 0 edgecolor
newpath 1688.61 692.6 moveto
1631.93 650.94 1476.18 532.56 1367.29 412.7 curveto
1347.62 391.05 1352.24 377.1 1329.29 358.96 curveto
1293.74 330.87 1243.77 313.95 1210.5 305.07 curveto
stroke
0 0 0 edgecolor
newpath 1211.3 301.66 moveto
1200.74 302.57 lineto
1209.56 308.44 lineto
closepath fill
1 setlinewidth
solid
0 0 0 edgecolor
newpath 1211.3 301.66 moveto
1200.74 302.57 lineto
1209.56 308.44 lineto
closepath stroke
grestore
% N113->N112
gsave
1 setlinewidth
0 0 0 edgecolor
newpath 1760.16 701.17 moveto
1857.49 687.24 2073.19 656.37 2187.25 640.04 curveto
stroke
0 0 0 edgecolor
newpath 2187.9 643.48 moveto
2197.3 638.6 lineto
2186.9 636.55 lineto
closepath fill
1 setlinewidth
solid
0 0 0 edgecolor
newpath 2187.9 643.48 moveto
2197.3 638.6 lineto
2186.9 636.55 lineto
closepath stroke
grestore
% N114
gsave
1 setlinewidth
0 0 0 nodecolor
1579.29 799.05 65.79 18 ellipse_path stroke
0 0 0 nodecolor
14 /Times-Roman set_font
1536.79 795.35 moveto 85 (block_item_list) alignedtext
grestore
% N114->N103
gsave
1 setlinewidth
0 0 0 edgecolor
newpath 1577.51 780.72 moveto
1576.25 768.38 1574.52 751.56 1573.08 737.45 curveto
stroke
0 0 0 edgecolor
newpath 1576.54 736.9 moveto
1572.04 727.31 lineto
1569.57 737.62 lineto
closepath fill
1 setlinewidth
solid
0 0 0 edgecolor
newpath 1576.54 736.9 moveto
1572.04 727.31 lineto
1569.57 737.62 lineto
closepath stroke
grestore
% N114->N113
gsave
1 setlinewidth
0 0 0 edgecolor
newpath 1603.01 782.16 moveto
1624.2 767.97 1655.39 747.09 1678.68 731.48 curveto
stroke
0 0 0 edgecolor
newpath 1680.82 734.26 moveto
1687.18 725.79 lineto
1676.93 728.44 lineto
closepath fill
1 setlinewidth
solid
0 0 0 edgecolor
newpath 1680.82 734.26 moveto
1687.18 725.79 lineto
1676.93 728.44 lineto
closepath stroke
grestore
% N115
gsave
1 setlinewidth
0 0 0 nodecolor
1351.29 709.31 36.13 26.74 ellipse_path stroke
0 0 0 nodecolor
14 /Times-Roman set_font
1333.79 713.11 moveto 35 (temp2) alignedtext
0 0 0 nodecolor
14 /Times-Roman set_font
1339.29 698.11 moveto 24 (\(int\)) alignedtext
grestore
% N116
gsave
1 setlinewidth
0 0 0 nodecolor
1428.29 799.05 67.69 18 ellipse_path stroke
0 0 0 nodecolor
14 /Times-Roman set_font
1384.29 795.35 moveto 88 (jump_statement) alignedtext
grestore
% N116->N115
gsave
1 setlinewidth
0 0 0 edgecolor
newpath 1413.45 781.13 moveto
1403.22 769.48 1389.35 753.68 1377.31 739.96 curveto
stroke
0 0 0 edgecolor
newpath 1379.7 737.38 moveto
1370.47 732.17 lineto
1374.44 741.99 lineto
closepath fill
1 setlinewidth
solid
0 0 0 edgecolor
newpath 1379.7 737.38 moveto
1370.47 732.17 lineto
1374.44 741.99 lineto
closepath stroke
grestore
% N117
gsave
1 setlinewidth
0 0 0 nodecolor
1437.29 709.31 31.7 18 ellipse_path stroke
0 0 0 nodecolor
14 /Times-Roman set_font
1420.79 705.61 moveto 33 (return) alignedtext
grestore
% N116->N117
gsave
1 setlinewidth
0 0 0 edgecolor
newpath 1430.07 780.72 moveto
1431.34 768.38 1433.06 751.56 1434.51 737.45 curveto
stroke
0 0 0 edgecolor
newpath 1438.01 737.62 moveto
1435.55 727.31 lineto
1431.05 736.9 lineto
closepath fill
1 setlinewidth
solid
0 0 0 edgecolor
newpath 1438.01 737.62 moveto
1435.55 727.31 lineto
1431.05 736.9 lineto
closepath stroke
grestore
% N118
gsave
1 setlinewidth
0 0 0 nodecolor
1428.29 879.92 65.79 18 ellipse_path stroke
0 0 0 nodecolor
14 /Times-Roman set_font
1385.79 876.22 moveto 85 (block_item_list) alignedtext
grestore
% N118->N114
gsave
1 setlinewidth
0 0 0 edgecolor
newpath 1457.41 863.71 moveto
1481.22 851.28 1515.09 833.59 1541.08 820.01 curveto
stroke
0 0 0 edgecolor
newpath 1543.02 822.94 moveto
1550.27 815.21 lineto
1539.78 816.74 lineto
closepath fill
1 setlinewidth
solid
0 0 0 edgecolor
newpath 1543.02 822.94 moveto
1550.27 815.21 lineto
1539.78 816.74 lineto
closepath stroke
grestore
% N118->N116
gsave
1 setlinewidth
0 0 0 edgecolor
newpath 1428.29 861.81 moveto
1428.29 851.78 1428.29 838.89 1428.29 827.48 curveto
stroke
0 0 0 edgecolor
newpath 1431.79 827.13 moveto
1428.29 817.13 lineto
1424.79 827.13 lineto
closepath fill
1 setlinewidth
solid
0 0 0 edgecolor
newpath 1431.79 827.13 moveto
1428.29 817.13 lineto
1424.79 827.13 lineto
closepath stroke
grestore
% N119
gsave
1 setlinewidth
0 0 0 nodecolor
1171.29 951.92 78.79 18 ellipse_path stroke
0 0 0 nodecolor
14 /Times-Roman set_font
1118.79 948.22 moveto 105 (function_definition) alignedtext
grestore
% N119->N39
gsave
1 setlinewidth
0 0 0 edgecolor
newpath 1171.29 933.62 moveto
1171.29 925.9 1171.29 916.63 1171.29 908.03 curveto
stroke
0 0 0 edgecolor
newpath 1174.79 908.03 moveto
1171.29 898.03 lineto
1167.79 908.03 lineto
closepath fill
1 setlinewidth
solid
0 0 0 edgecolor
newpath 1174.79 908.03 moveto
1171.29 898.03 lineto
1167.79 908.03 lineto
closepath stroke
grestore
% N119->N118
gsave
1 setlinewidth
0 0 0 edgecolor
newpath 1219.93 937.67 moveto
1263.72 925.74 1328.01 908.23 1373.58 895.82 curveto
stroke
0 0 0 edgecolor
newpath 1374.56 899.18 moveto
1383.29 893.18 lineto
1372.72 892.43 lineto
closepath fill
1 setlinewidth
solid
0 0 0 edgecolor
newpath 1374.56 899.18 moveto
1383.29 893.18 lineto
1372.72 892.43 lineto
closepath stroke
grestore
% N120
gsave
1 setlinewidth
0 0 0 nodecolor
1119.29 1023.92 82.59 18 ellipse_path stroke
0 0 0 nodecolor
14 /Times-Roman set_font
1063.79 1020.22 moveto 111 (external_declaration) alignedtext
grestore
% N120->N119
gsave
1 setlinewidth
0 0 0 edgecolor
newpath 1131.88 1005.98 moveto
1138.14 997.55 1145.83 987.2 1152.75 977.89 curveto
stroke
0 0 0 edgecolor
newpath 1155.67 979.82 moveto
1158.82 969.71 lineto
1150.05 975.65 lineto
closepath fill
1 setlinewidth
solid
0 0 0 edgecolor
newpath 1155.67 979.82 moveto
1158.82 969.71 lineto
1150.05 975.65 lineto
closepath stroke
grestore
% N121
gsave
1 setlinewidth
0 0 0 nodecolor
958.29 1104.79 65.79 18 ellipse_path stroke
0 0 0 nodecolor
14 /Times-Roman set_font
915.79 1101.09 moveto 85 (translation_unit) alignedtext
grestore
% N121->N38
gsave
1 setlinewidth
0 0 0 edgecolor
newpath 953.65 1086.59 moveto
940 1036.05 899.97 887.75 883.5 826.74 curveto
stroke
0 0 0 edgecolor
newpath 886.87 825.8 moveto
880.88 817.06 lineto
880.11 827.63 lineto
closepath fill
1 setlinewidth
solid
0 0 0 edgecolor
newpath 886.87 825.8 moveto
880.88 817.06 lineto
880.11 827.63 lineto
closepath stroke
grestore
% N121->N120
gsave
1 setlinewidth
0 0 0 edgecolor
newpath 988.95 1088.77 moveto
1014.28 1076.36 1050.46 1058.64 1078.28 1045.01 curveto
stroke
0 0 0 edgecolor
newpath 1079.93 1048.1 moveto
1087.37 1040.56 lineto
1076.85 1041.82 lineto
closepath fill
1 setlinewidth
solid
0 0 0 edgecolor
newpath 1079.93 1048.1 moveto
1087.37 1040.56 lineto
1076.85 1041.82 lineto
closepath stroke
grestore
% N122
gsave
1 setlinewidth
0 0 0 nodecolor
958.29 1194.53 104.78 18 ellipse_path stroke
0 0 0 nodecolor
14 /Times-Roman set_font
885.79 1190.83 moveto 145 (translation_unit_or_empty) alignedtext
grestore
% N122->N121
gsave
1 setlinewidth
0 0 0 edgecolor
newpath 958.29 1176.2 moveto
958.29 1163.86 958.29 1147.04 958.29 1132.93 curveto
stroke
0 0 0 edgecolor
newpath 961.79 1132.79 moveto
958.29 1122.79 lineto
954.79 1132.79 lineto
closepath fill
1 setlinewidth
solid
0 0 0 edgecolor
newpath 961.79 1132.79 moveto
958.29 1122.79 lineto
954.79 1132.79 lineto
closepath stroke
grestore
endpage
showpage
grestore
%%PageTrailer
%%EndPage: 1
%%Trailer
%%Pages: 1
%%BoundingBox: 36 36 3018 1265
end
restore
%%EOF
